<?xml version="1.0" encoding="UTF-8" standalone="no"?>
<!-- Created with Inkscape (http://www.inkscape.org/) -->

<svg
   width="177.10698mm"
   height="76.308495mm"
   viewBox="0 0 177.10698 76.308495"
   version="1.1"
   id="svg562"
   xml:space="preserve"
   inkscape:version="1.2 (dc2aedaf03, 2022-05-15)"
   sodipodi:docname="consulting-workflow.svg"
   xmlns:inkscape="http://www.inkscape.org/namespaces/inkscape"
   xmlns:sodipodi="http://sodipodi.sourceforge.net/DTD/sodipodi-0.dtd"
   xmlns:xlink="http://www.w3.org/1999/xlink"
   xmlns="http://www.w3.org/2000/svg"
   xmlns:svg="http://www.w3.org/2000/svg"><sodipodi:namedview
     id="namedview564"
     pagecolor="#ffffff"
     bordercolor="#666666"
     borderopacity="1.0"
     inkscape:showpageshadow="2"
     inkscape:pageopacity="0.0"
     inkscape:pagecheckerboard="true"
     inkscape:deskcolor="#d1d1d1"
     inkscape:document-units="mm"
     showgrid="false"
     inkscape:zoom="4.0000001"
     inkscape:cx="175.75"
     inkscape:cy="71.124998"
     inkscape:window-width="1920"
     inkscape:window-height="1006"
     inkscape:window-x="1920"
     inkscape:window-y="0"
     inkscape:window-maximized="1"
     inkscape:current-layer="g6318-1-9"
     showborder="false" /><defs
     id="defs559" /><g
     inkscape:label="Layer 1"
     inkscape:groupmode="layer"
     id="layer1"
     transform="translate(-11.468609,-183.04355)"><path
       style="fill:#005aa0;fill-opacity:1;stroke:none;stroke-width:0.264583px;stroke-linecap:butt;stroke-linejoin:miter;stroke-opacity:1"
       d="m 44.624294,219.93986 -0.360342,-4.85098 5.414121,2.64246 -4.621543,1.90149"
       id="path8939"
       sodipodi:nodetypes="cccc" /><path
       style="fill:#005aa0;fill-opacity:1;stroke:none;stroke-width:0.264583px;stroke-linecap:butt;stroke-linejoin:miter;stroke-opacity:1"
       d="m 54.887833,209.41172 1.491022,1.02489 5.705613,-2.669 10.078394,-2.64328 10.003364,0.51769 8.45916,5.46401 -1.216197,5.58286 -7.625873,5.72395 -11.952557,2.36609 -12.266218,-1.17473 -5.951919,-2.83665 -2.172724,-1.49269 -2.11183,0.72496 3.615156,3.05575 c 2.838788,1.40668 6.251465,2.32314 9.95232,2.99344 5.80336,0.27992 11.683445,1.4838 17.342755,0.029 4.601827,-0.14125 7.485523,-1.37684 9.725453,-3.02247 3.180162,-1.65312 6.472287,-3.21714 6.471431,-7.40147 0.192337,-1.54933 0.397478,-3.09322 -0.278961,-5.01144 -1.536058,-1.61591 -2.784298,-3.19974 -6.19247,-5.02426 -2.287724,-2.32042 -7.243693,-2.80847 -12.8725,-2.83446 l -5.721993,0.87568 c -4.021213,1.24157 -3.71491,-1.14567 -14.481426,5.75213 z"
       id="path8937"
       sodipodi:nodetypes="ccccccccccccccccccccccc" /><path
       style="fill:#005aa0;fill-opacity:1;stroke-width:0.0384564"
       d="m 48.350683,207.0062 v -2.15356 h -0.406384 c -0.369237,0 -0.404502,-0.006 -0.385798,-0.0673 0.01132,-0.037 0.263646,-0.88065 0.56072,-1.87475 l 0.540135,-1.80745 -0.01013,-0.51578 -0.01012,-0.51577 -0.478886,1.62397 c -0.468126,1.58747 -0.482116,1.62688 -0.622623,1.75382 -0.168017,0.15179 -0.366212,0.2002 -0.569848,0.13919 -0.284958,-0.0854 -0.462975,-0.30959 -0.462975,-0.58313 0,-0.0655 0.269286,-1.02221 0.598414,-2.12596 0.494487,-1.65829 0.616373,-2.0257 0.701829,-2.11555 0.146734,-0.15429 0.816718,-0.47429 1.180197,-0.5637 0.40675,-0.10005 0.999894,-0.13503 1.384432,-0.0816 0.629556,0.0874 1.497123,0.44727 1.680392,0.69706 0.03906,0.0532 0.330858,0.98773 0.648437,2.07665 0.619583,2.12443 0.639347,2.22711 0.47187,2.45143 -0.143892,0.19272 -0.272267,0.25924 -0.496137,0.25706 -0.222838,-0.002 -0.349894,-0.0688 -0.490428,-0.25698 -0.04124,-0.0552 -0.288658,-0.82256 -0.549815,-1.70517 -0.261158,-0.8826 -0.483739,-1.61364 -0.494625,-1.62452 -0.01089,-0.0109 -0.01979,0.20418 -0.01979,0.47792 v 0.49772 l 0.572988,1.92183 0.572987,1.92183 -0.419161,0.0109 -0.419162,0.0109 v 2.1523 2.1523 h -0.615303 -0.615303 v -2.15356 -2.15356 h -0.307651 -0.307652 v 2.15356 2.15356 H 48.96599 48.350687 Z m 1.258199,-9.26917 c -0.347083,-0.0873 -0.643172,-0.33515 -0.802697,-0.67181 -0.22458,-0.47396 -0.108904,-1.07228 0.274072,-1.41761 0.255198,-0.23011 0.466857,-0.30953 0.827912,-0.31063 0.372543,-0.001 0.599038,0.0936 0.869374,0.36366 0.568182,0.56758 0.402939,1.56839 -0.319291,1.9338 -0.233379,0.11808 -0.608016,0.16333 -0.84937,0.10259 z"
       id="path3570" /><image
       width="12.966809"
       height="12.966809"
       preserveAspectRatio="none"
       xlink:href="data:image/png;base64,iVBORw0KGgoAAAANSUhEUgAAAYAAAAGACAYAAACkx7W/AAAABHNCSVQICAgIfAhkiAAACgVJREFU eJzt3TGrHNcdxuHXRoUKlyr0AVSoUKlShZp0chFQE5CLdGoCatyp0weIO6VXwIUNKZzOhQwKuHDA hQ022L0CTqeADTdwU6wS21nZurra2Tln3ueBRaXOzh+dH6OZnUkAAAAAAAAAAAAAAAAAAAAAAAAA AAAAAAAAAAAAAAAAAAAAAAAAAAAAAAAAAAAAAGB8b6y9gAGdrr0ANuW9JO8m+ffaC4H/JwD7BIBD +zDJO0l+WHsh8FMCsE8AWMLfkvw2yT/XXgj8lwDsEwCW8nWSt5N8u/ZCIEneXHsBUORqkidJrq+9 EEgEAI7tcpLHSW6tvRAQADi+t5L8JcndtRdCNwGAdVxI8jDJg7UXQi8Xgfe5CMyx/TnJ7+O3AhyZ AOwTANbwSXZ3CP1r5XVQRAD2CQBr+TLJb5L8Y+2F0ME1ABjHtSSfP/8TFicAMJbLST5NcnPldVBA AGA8byX5OMmdtRfCtgkAjOlCkkdJ7q+9ELbLReB9LgIzmj8l+UPcJsqBCcA+AWBEf03yu7hNlAMS gH0CwKj+nt1vBdwmykG4BgDzuJ7d00Svrr0QtkEAYC5XsovAjbUXwvwEAOZzKbvbRG+vvRDmJgAw p4tJ3k9yb+2FMC8Xgfe5CMxs3kvybtwmyisSgH0CwIw+TPJOkh/WXgjM7HThD2NZet7H/DzJ7voA cE4C0GXtTfvQn6+yu1MIXspFYNiWq9mdCVxfeyGMTwBgey4neZzk1toLgdn4L6Aua/+XzZKfkyR3 D3eoYPsEoMvam/QxPg8OdrRg4wSgy9qb87E+j7J7xwD8j98B7Ft6k3bMx9IU5U+ye5qoR0qTxGb0 IgLQpSkASfJlkt/EI6WJu4CgzbUknz//k3ICAMt6b+0FvMDlJJ8mubnyOmA4LgJ3Oca8/3iEv+c8 n5Mkd17z+MGmCECXY8171AicJrn/GscPNkUAuhxz3iNH4GHcJgoCUObY8x45Ah8leevVDyFshwB0 WWPeI0fgs+wuEkMlAeiy1rxHjsA32T1VFOoIQJc15z1yBL5LcuNshxC2QwC6rD3vkSPwfZLbZ/gO sBlrbwgc1wjzHjkCJ0nunfF7wPRG2BA4nlHmPXIETp+vz22ibN4oGwLHMdK8R4/AB0kuvuJ3gqmM tCGwvNHmPXoEniS5dI7vBVMYbUNgWSPOe/QIfJXkyjm/GwxtxA2B5Yw679Ej8DTJ9df4fjCkUTcE ljHyvEePwLMkt17zO8JQRt4QOLzR5z16BE6S3D3A94QhjL4hcFgzzHv0CJwmeXCg7wqrmmFD4HBm mfcMEXgUvxVgcrNsCBzGTPOeIQKP45HSTGymDYHXN9u8Z4jAF/FIaSY124bA65lx3jNE4GmSawt9 f1jMjBsC5zfrvGeIwLMkNxf6/rCIWTcEzmfmec8QgZMkd5Y6AHBoM28IvLrZ5z1DBE6T3F/qAMAh zb4h8Gq2MO9ZIvAwbhNlcFvYEDi7rcx7lgh8FLeJMrCtbAiczZbmPUsEPovbRBnUljYEXm5r854l At8kubrQMYBz29qGwK/b4rxnicB3SW4sdAzgXLa4IfDLtjrvWSLwfZLbCx0DeGVb3RB4sS3Pe5YI nCS5t9AxgFey5Q2BfVuf9ywROH2+VreJsqqtbwj8XMO8Z4rAB0kuLnMY4OUaNgR+1DLvmSLwJMml ZQ4D/LqWDYGdpnnPFIGvklxZ5jDAL2vaEOib90wReJrk+jKHAV6sbUNo1zjvmSLwLMmtZQ4D7Gvc EJq1znumCJwkubvMYYCfa90QWjXPe6YInCZ5sMxhgB81bwiN2uc9WwQexW8FWFD7htDGvOeLwON4 pDQLsSF0Me+d2SLwRTxSmgXYELqY949mi8DTJNcWORLUsiF0Me+fmy0Cz5LcXOJA0MmG0MW8980W gZMkdxY5EtSxIXQx7xebLQKnSe4vciSoYkPoYt6/bMYIPIzbRHkNNoQu5v3rZozAR3GbKOdkQ+hi 3i83YwQ+i9tEX+qNtRcwoKX/0TrmY9nKJs2+b5O8neTrtRcyqjfXXgDAQq5k93KZG2svZFQCAGzZ pSQfJ7m99kJGJADA1l1M8n6Se2svZDT+P3qfawBdXAPo4t/fTzgDACglAAClBACglAAAlBIAgFIC AFBKAABKCQBAKQEAKCUAAKUEAKCUAACUEgCAUgIAUEoAAEoJAEApAQAoJQAApQQAoNSFtRcAK/OO 2LF4R/MROQMAKCUAAKUEAKCUAACUEgCAUgIAUEoAAEr5HcD2bO0+avfpw0KcAQCUEgCAUgIAUEoA AEoJAEApAQAoJQAApQQAoJQAAJQSAIBSAgBQSgAASgkAQCkBACglAAClvA9gezw/HzgTZwAApQQA oJQAAJQSAIBSAgBQSgAASgkAQCkBACglAAClBACglAAAlBIAgFICAFBKAABKCQBAKe8D2J7TtRfA pnnfxIY4AwAoJQAApQQAoJQAAJQSAIBSAgBQSgAASgkAQCkBACglAAClBACglAAAlBIAgFICAFBK AABKeR/A9nheO3AmzgAASgkAQCkBACglAAClBACglAAAlBIAgFICAFBKAABKCQBAKQEAKCUAAKUE AKCUAACUEgCAUt4HsD2nay+ATfO+iQ1xBgBQSgAASgkAQCkBACglAAClBACglAAAlBIAgFICAFBK AABKCQBAKQEAKCUAAKUEAKCUAACU8j6A7fG8duBMnAEAlBIAgFICAFBKAABKCQBAKQEAKCUAAKUE AKCUAACUEgCAUgIAUEoAAEoJAEApAQAoJQAApbwPYHtO114Am+Z9ExviDACglAAAlBIAgFICAFBK AABKCQBAKQEAKCUAAKUEAKCUAACUEgCAUgIAUEoAAEoJAEApAQAo5X0A2+N57cCZOAMAKCUAAKUE AKCUAACUEgCAUgIAUEoAAEoJAEApAQAoJQAApQQAoJQAAJQSAIBSAgBQSgAASnkfwPacrr0ANs37 JjbEGQBAKQEAKCUAAKUEAKCUAACUEgCAUgIAUEoAAEoJAEApAQAoJQAApQQAoJQAAJQSAIBSAgBQ yvsAtsfz2oEzcQYAUEoAAEoJAEApAQAoJQAApQQAoJQAAJQSAIBSAgBQSgAASgkAQCkBACglAACl BACglAAAlBIAgFICAFBKAABKCQBAKQEAKCUAAKUEAKCUAACUEgCAUgIAUEoAAEoJAEApAQAoJQAA pQQAoJQAAJQSAIBSAgBQSgAASgkAQKkLay+g0OnaCwBInAEA1BIAgFICAFBKAABKCQBAKQEAKCUA AKUEAKCUAACUEgCAUgIAUEoAAEoJAEApAQAoJQAApQQAoJQAAJQSAIBSAgBQSgAASgkAQCkBACgl AAAAAAAAAAAAAAAAAAAAAAAAAAAAAAAAAAAAAAAAAAAAAAAAAAAAAAAAAAAAAAAAAMCw/gO7+w9w PbAyWQAAAABJRU5ErkJggg== "
       id="image850"
       x="64.282654"
       y="187.79523" /><image
       width="25.506094"
       height="25.506094"
       preserveAspectRatio="none"
       xlink:href="data:image/png;base64,iVBORw0KGgoAAAANSUhEUgAAAYAAAAGACAYAAACkx7W/AAAABHNCSVQICAgIfAhkiAAAEsdJREFU eJzt3U+obdddB/Bv9CFvkEEGEZ6YSgZPKCI0otAOImRQoUIHAQUDVuyggoKDDBQ6qBjooIMIHVTI IINS0mKkLQlYaKCFDiJ0JFUUKqSQSiOJpthCAn2QwHOw7+67ubl/zj1r7T9rrc8HNm1f391nne/5 vfM7a61990kAAAAAAAAAAAAAAAAAAAAAAAAAAAAAAAAAAAAAAAAAAAAAAAAAAAAAAAAAAAAAAAAA AAAAAAAAAAAAAAAAAAAAAAAAAAAAAAAAAAAAAAAAAAAAAAAAAAAAAAAAAAAAAAAAAAAAAAAAAAAA AAAAAAAAAACgUb+44WPfSPJrSR5Jcn+S/91wLK16MMlvJPm/JO9uPJYWya+M/I73SJJHk/xSkjsn xxBuJ/lmkrtnjteTfDHJb243tCY8luQ7Sd7MvezeSfK9JE8neWCzkbXhscivxGOR37EeTvLVJD/J +9//vp/ko5uNbAU3knwuU7GcffKnj7eSPLHRGPfsgSTP5vLs7iZ5NdMnC95LfmXkV+aJTO9tV+X3 QqaZ1SruW+uBkjyV5G+v8ff/OsnfLTOUcz2U5ONJPnzy3+cjSV47dfxLkm8k+eGKY3sg0yeshw/8 ++8m+ZMkzy81oHPIr4z8yuw5vyeTfP4af/+lJL+/0Fg28bFc/cn/7PGz3HsBl3IryWczFfd1xnY3 yb+f/OythceYJF84YnxvZvnpuPzKyK9MC/ndyvlLPlcdn154XKv6fq4fwN0kzy00npuZZiTHvDBn j7dOznVzobF+pGBszy40JvmVkV+ZlvJ77shxvZPp4pjmPZyyF+h25fE8nmnDubRwzh6vZ5qC1vZy 4bjkJ78S8jve7cIxPV55PJv4VMpC+EzFsXymcCxrj/ehnY1HfmXkV6a1/ErH+0zFsWzmqZSF8L0K Y7iR46dixxzPnTxmqScrjEV+8juW/Mocszdx+vinCmPY3CdS/oKUTiPXLJ7TRVSqdPotP/mVkN/x Spd/7mbafG9eySbSfJRMy9aYNi4x7hrTb/ltPw75jZlfjXF3cSXQ/Zku6SwJ4thp5OOFj1vjOHZj qcb0W37yk982+ZUu/9xNR78Z/ELKw7juNPJmlrla4LrH6znuErPvVh7HaPnVWr4YNT/1d3x+NZZ/ 3kydfYhL/cLSD3Di6xXOcd3bQ3w66/ySzFVuJfmra/7M7UxLZzWNlN9DqX87gpHyU3/3HJNfjVvZ vJiObrC39jLQsb99t9Txk1zv/h5LrHuOlF/N5YsR81N/ZflZ/jnHmstAn63wWLWPzx449qROAclP fvJbP79HKjzWKss/yXpLQMm6y0BL/EZkqT888O/dzlRES5BfGfmVGSG/P6jwWF0t/8zWWgaqefna Fp+AlrzsTX7yk9+y+b1S4XFWW/5ZcwbwdqbbnJZ4JFe/CHv89DA75BNQjU8QF5FfGfmV6T2/Q57f VV5L8u3CcxxszQaQJF+qcI6rXoQPV3iMpXzoiv//g1lu+j3rOb8lly9mPeen/i53VX41mufXKpzj YGs3gJcyzQRKXBXy0t8hUOKqKwn+eIUx9JzfGt8k13N+6u9ya9Rfjb3SXatxX4/LplnHfvfAGser V2RTY/1w5PyWunpllPzU3/H51bj650eXnH8Ra88AkuWvBmr1E0SN9cND9ZjfGss/sx7zU39Xuyy/ 5pZ/km0awBrLQC1a8zn1mN8ayz+zHvNTf2Us/1zDkstArU4h15p+y09+8qub36MVzv3KBede1BYz gGTZZaDXKpx7KT+84M/XnH7P5FdGfmV6yq/GjOb5Cue4tq0awEtJflp4jotC33MB/fiCP1/j6ouz espviyWFnvJTf4e5KL9Df0v4Mpss/2zVAO6kfMPjok8t/1Z43iVdNLY1169n8isjvzK95Pdoyjeu f5DkXwvPcZStGkCS/GOFc/zpOX/2jQrnXcqL5/xZjQI6Vg/5bbF8MeshP/V3uPPya3b5Z2s3Mt31 bomNkz1uJF001s/vcEwt5bflnSN7yE/9lY31RxXOvdbly++z5Qzg3ZzfUa/jomu/S8+7hIu6fI31 w2P1kN8WyxezHvJTf4c5L78as6f/zEbLP3vw0ZR3z/Pu030r5XcerXm8lfO/3ajG5WMj51fjty9H zk/9leVXY/ZU8sXzzVtyGeipwvPWPJ66YIxbTr97yO/pHYyt5fzU3/H53Uid7yzeav9qN55NeYjn TSPvz76/VLpGAb2cOl9+3mJ+Sfn668j5qb+y/GqsXlznazIXseUewOwrFc5x3k7820n+osK5S/1Z pstez3os5V96/fXUuX64xfxqrL+OnN9jUX+HuCi/P6pw7mFu/XCV0k9yl/0a9ZLfcHTVcdn6Xo2Z z0Op8w1KLeZXY/li5PzU3/H51Vi6vhvLPz9X4x/zZZdS1bj30HWP5y4ZT40CevnU+Zaahu81v6TO 8s+o+am/svy6WP7ZkxpXI5x3NcHsRtYtoudOHvMiNQroyVPne3Kw/GrUy8j5qb+y/GrMnp5831kH t+Qy0GyN6eQhl3XVmn7PbiV5p/B8LeVXa/lnNlp+6u/4/Got/+z5ew82sfQy0OzxLHN1wes57Aut a0+/Z9+q8BxayC+pu/wzGyU/9VeWX43Z03n5DW/pZaDTbma6tvcnFR7zrZNzXXSp4lmPV3jMPz/n vJ+qcN4W8qtRJyPnp/7K8rP8s6A1loFOu5Wp6I6598grJz973UvpStcy38n5X033YNaZhp+2RX7P FD7H0fNTf8fndzN1ms5uln/u23oAZ3wuyacLz/FbOe7eGrcz3VfmQ5mK+eHcK/QfZ/oyiB9nuiXs i0n+44jHuJlp+n3/ET87+3aS37vg//tWpilqiT3nN//y0mXfzXqVkfNTf2X5PZ7khSN+7rR/TvK7 hefoVo17uxw6jdxCjen3py45/5rT8C3UWH8dOT/1V6bGlUh/ufqoG1P63aSbfLfmgZaafs8eSPlN tPacX+n66+j5qb/j3cy0X7BkfqTO/d03u7/2JWoU0LcOeJwXCh9jr/nVuHpl5PzUX5kas6dD8lvV Hu4FdNZS9xbZ2sdTtvaaHPYtar3m91jKPz2NnJ/6K1NjTDW+BbGqvW0Cz15J2X0yfpDk1w/4e7cy 7cjP//mruXd/k/lIpi+qPn38d5I3Tv3vNw54rBcyfYo41p0kH8jFX0w9uz/TJ+VDL2s7zxL5vZFp I+61JP9z6s/mDK/ybC5ff75K6/mpv/c7Jr//ynuzey1XP6cam+fvJvmVAx6LLLcMdCvTlQJfTPJq hceYj1dPzvnJTFcfnHV/ytdGr3P1wVLT8KXyez3JP2S6vvyD5zxujeWfnvNTf2XH9zNdXvxEpn2M s7pc/tmzWlcDPZDpK++eybrfM3r2H+QnKpzzE9fI74nO8qtx9c/I+am/6x3fy3Rngo9lap41rv4p mb0uZq9LQMn0IpRsBt1J2TS0ptKx3Enyy5nukX6IGlNW+cnv9M+Pmt+7J/952c3hrnIn0/LPT8uH U9ceN4FnpZtJeyieWelYXsrh//iSqeBKv1hbfmXkV2Yv+d1I2Zt/MuW3uzf/ZN8N4PmtB7AjxzRD 3zZ0j/zKyK/MbrPY8xJQUr4M1IPrTr9nNabhPZBfGfmVOTa/Vex5BpDsuHOu6LrT71mNaXgP5FdG fmWOzW8Ve28AloGSLxX87O5+8WQD8isjvzK7/hC79yWgZOxloLczTR/vHPnzNe6e2TL5lZFfmbcz Xf1jBlBg5E8RL+b4f3zJdAnbyNNw+ZWRX5kXs+M3/6SNBvDlrQewoRrTx5EbqPzKyK/Mrpd/kjaW gJLpOzQf3XoQKyudfs9GnYbLr4z8ytTKb1EtzACSBjrpAkqn37NRp+HyKyO/MrXyW1QrDeBrWw9g AzWbXsmVHK2SXxn5lRnxQ+uiXs56N4Pa+ii9ne55frSD5yW/Ng75lR1vZT+3srhUKzOAZKyOusT0 caRZlPzKyK/M82lg+SdpqwGMVEBLXDkxUgOVXxn5lRn5yqdFfSfbT+/WmH6X3n3wIiNMw+Unv17z q66lGUCSfGXrAazgxdy7B3ltI9xaQ35l5FdmyfyG92CSd7J9l1/y+Gi1tN6vxjet7f2Qn/x6zY9M 36259Yu81LHG9PGVHTxP+e3zkN/+86uqtSWgpO9rir+c5aePPU/D5VdGfmXWyG94N9Lnp4ifJblV MaeL3Dp5rK2fr/z2dcivjfyqanEG8G6Sv9l6EAv4+yRvrPA4b5w8Vm/kV0Z+ZdbKjxNPZvuuX+v4 atZdO7xx8phbP2/57eOQX1v5ceKTme40uHUBHHu8k+SZbFM8N5I8nban4/KT36j5ceKBJJ9J8s1M u/BbF8VVx5tJvpvkC0luL5DHdd1K8rlMY5Lf9cmvjPw21Mr3AVzH3a0HcIW9Zy6/MvIrI78VtbgJ DEAFGgDAoDQAgEFpAACD0gAABqUBAAxKAwAYlAYAMCgNAGBQGgDAoDQAgEFpAACD0gAABqUBAAxK AwAYlAYAMCgNAGBQGgDAoDQAgEFpAACD0gAABqUBAAxKAwAYVG8N4KGtB3CAB7ceAItRfzSltwbw O1sP4AAf2XoALEb90ZTeGsBvbz2AAzyy9QBYjPqjKb01gBaKu4U3CY6j/mjKfVsPoLI3s/81zteS fGDrQVzi7tYDuMKea1b9lVN/K+ppBvBQ9v+PL2lnnFxPK69rK+NkBT01gBY24GY24vqj/mhOTw2g pbXNFtaKuR71R3N6agAtFXVLbxYcRv3RnJ42NFrYgJvteSPOJtxx1F8d6m9FvcwAWtvYam28XK61 17O18bKQXhpASxtwMxtx/VB/NKmXBtDimmZLa8ZcTv3RpF4aQIvF3OKbBudTfzSplw2NljbgZnvd iLMJd33qrx71t6IeZgCtbmi1Om7eq9XXsdVxU1EPDaDFDbiZjbj2qT+a1UMDaHkts8W1Y95L/dGs HhpAy0Xc8psHE/VHs3rY0GhxA262x404m3DXo/7qUn8ran0G0PpGVuvjH13rr1/r46dQ6w2g5Q24 mY24dqk/mtZ6A+hhDbPlNeTRqT+a1noD6KF4e3gTGZX6o2mtb2i0vAE329tGnE24w6m/+tTfilqe AfSygdXL8xhNL69bL8+DI7TcAHrYgJvZiGuP+qN5LTeAntYue1hLHo36o3ktN4CeiranN5NRqD+a 1/KGRg8bcLM9bcTZhDuM+luG+ltRqzOA3jauens+vevt9ert+XCgVhtATxtwMxtx7VB/dKHVBtDj mmVPa8q9U390odUG0GOx9vim0iv1Rxda3dDoaQNutpeNOJtwV1N/y1F/K2pxBtDrhlWvz6s3vb5O vT4vLtFiA+hxA27Ww0bcfVccrVN/+9Z7/VXVYgPoea2yx7Xl3qg/utFiA+i5SHt+c+mF+qMbLU6J etyAm+1hI650E+6qmlr6/EtTf8tSfytqbQbQ+0ZV78+vdb2/Pr0/P85orQH0vAE362Ejrlfqj660 1gBGWKPseY25deqPrrTWAEYozhHeZFql/uhKaxsaPW/AzbbeiLMJdzH1tzz1t6KWZgCjbFCN8jxb M8rrMsrzJG01gBE24GY24vZH/dGdlhrASGuTI6w1t0b90Z2WGsBIRTnSm00r1B/daWlDY4QNuNmW G3E24c6n/tah/lbUygxgtI2p0Z7v3o32eoz2fIfVSgMYaQNuZiNuP9QfXWqlAYy4JjnSmvPeqT+6 1EoDGLEYR3zT2Sv1R5da2dAYaQNuttVGnE2491N/61F/K2phBjDqhtSoz3tvRn0dRn3eQ2mhAYy4 ATezEbc99Ue3WmgAI69Fjrj2vDfqj2610ABGLsKR33z2Qv3RrRY2NEbcgJttsRFnE+691N+61N+K unoyJxRQGfmVkV8Z+a2ohSUgABagAQAMSgMAGJQGADAoDQBgUBoAwKA0AIBBaQAAg9IAAAalAQAM SgMAGJQGADAoDQBgUBoAwKA0AIBBaQAAg9IAAAalAQAMSgMAGJQGADAoDQBgUBoAwKA0AIBBaQAA g9IAAAalAQAMSgMAGJQGADAoDQBgUBoAwKA0AIBBaQAAg9IAAAalAQAMSgMAGJQGADAoDQBgUBoA wKA0AIBBaQAAg9IAAAalAQAMSgMAGJQGADAoDQBgUBoAwKA0AIBBaQAAg9IAAAalAQAMSgMAGJQG ADAoDQBgUBoAwKA0AIBBaQAAg9IAAAalAQAMSgMAGJQGADAoDQBgUBoAwKA0AIBBaQAAg9IAAAal AQAMSgMAAAAAAAAAAAAAAAAAAAAAAAAAAAAAAAAAAAAAAAAAAAAAAAAAAAAAAAAAAAAAAAAAAAAA AAAAAAAAAAAAAAAAAAAAAAAAAAAAAAAAAAAAAAAAAAAAAAAAAAAAAAAAAAAAAAAAAAAAAAAAAAAA AAAAAAAAAAAAAABgV/4fJCjcneIK+BgAAAAASUVORK5CYII= "
       id="image862"
       x="96.392891"
       y="193.76244" /><image
       width="24.854006"
       height="24.854006"
       preserveAspectRatio="none"
       xlink:href="data:image/png;base64,iVBORw0KGgoAAAANSUhEUgAAAYAAAAGACAYAAACkx7W/AAAABHNCSVQICAgIfAhkiAAAEOZJREFU eJzt3UGoHdd5B/C/wytooYUWWgjqggKGapGFglVQwKUuGOIShdrEJQFnoSwCKRVUgRRisEHgRRYp 2JBFFi48gxrskAQ72EUJCchGgQhiI0EKMdgggVXiYhUbZJBAKuri3FdLL0/v3XfvzD1nZn4/+JAs vzfzzcw595s5d+ZMAgAAAAAAAAAAAAAAAAAAAAAAAAAAAAAAAAAAAAAAAAAAAAAAAAAAAAAAAAAA AAAAAAAAAAAAAAAAAAAAAAAAAAAAAAAAAAAAAAAAAAAAAAAAAAAAAAAAAAAAAAAAAAAAAAAAAAAA AAAAAAAAAAAAAAAAAAAAAAAAAAAAAAAAAAAAAACwnPtqJzAie5Psn/39apJPKuYCY6N/0Yy9Sb6W 5HSSS0muJbm9Ka7P/t9Pknx99jvAzvQvmnQ0ySspjW9zg9wpbiY5k+ThVScNA6F/0aQHUs40dtso 7xWvzJYJ6F807FTK2UVXjfPOM5ZTK9sKaNOp6F80aG+Sl9J9w9wcL8X4JdOjf9GsA0l+l/4b50b8 brZOmAL9i2atJTmX1TXOjTg3WzeMmf5F09az+sa5Eesr2D6oSf+iWSdTr3FuxMnetxLq0L9o1oFs /cDJquNajFcyPvoXTXsh9RvnRrzQ87bCqulfNOtz6ede5EXj5iwnGAP9q1GfqZ1AI/4pbd0hsJbk n2snAR3Rv2ja+6l/VrI5/tjrFsPq6F8063DqN8Z7xUM9bjesgv7VMENAybHaCWzj72snAEvSvxqm ACR/WTuBbRyqnQAsSf9qmAKQ3F87gW3s3/lHoGn6V8MUgLYbqAdWGDr9q2HeCVzePrSndhL3cCvJ n9VOApagfzXMFUDbL5duOTeYR8ttuOXcVkIBSK7UTmAbH9ROAJakfzVMAdBAoU/6V8MUgLYbQcud B+ahfzVMAUjerJ3ANlrODebRchtuOTdWZH/amqnwzmj5FjqYh/5F82q8o3SnONfrFsPq6F+NMgRU /Kx2Alv4ce0EoCP6F03bkzI9bO2zko14P+0+PAO7pX/RvOOp3zA34nivWwqrdzz1+5X+xT2tJfl9 6jfOC2nr7UnQBf2L5h1Oci31Gue1WQ4wRvoXzXss9RroYyvYPqhJ/6J5T2f1jfPplWwZ1Kd/0bzv ZjUPsNycrQumRP+iecfS75jltbT9zlTok/5F8z6X5Gy6b5xnZ8uGKdO/GIRj6eY2tnfjyyjYTP+i eWspjWs9yYeZv1F+mOR0kifiHmS4F/1rxbwTeDkPpdxX/OcpMwtuzC54JWUe9P9K8laS8ynvHwXm p38BAAAAAAAswJfAwFAcyKfz+F+JL36XpgAs7mDKXQoPzv7cv8XPXEnyyyS/SLlbAdjZ/iSPJvnS 7M99W/zMjSQXU+4AejOlj91YVYJM16NJzmT3D6i8n+SFJA+vPGNo31qSbyX5bRZ7AOyPKRO+HVh1 4kzDsSR/SDePqZ+OhgobjmTxD/7NcT3JqXggjI7sS3kysYvGeWd8lHLGo6EyVfuSPJd+ZgW9kOTQ 6jaFMXooZeim68Z5Z5xNsndVGwSNOJDurqi3uxp4YlUbxLg8lNW9vu5cFAGmYxUf/htxM8nJ1WwW Y/FwVv/u0nMxHMT47c3qPvzvDEWAuTyQei+u/kkUAcZrb8qJTo2+dTvlDj64p7WUL49qNdDbSX6V T2c9hLE4nDJXf82+9cds/bwOJCl3JNRsoBvxYbzKjvH4VsoXsrX71e0kr/W8rQzUA1nNS6p3E8/F kBDDtS9lWLN2P9ocD/W50QzTeuo3zK3iQkpxgiE5kuRS6vefreKVHrebATqQdi5Rt4prSY73tfHQ sZNp72p6cxzubesZnFOp3yDnidPxvADt2p/F5smqEd/vaR8wQGdTv0HOG+/G2QvtWcVT813GhX52 A0OzN+1frm4OTzfSirUk383w+tDtbD3NNBPzaOo3xEXjTNzXTD0HUp5bqd0PFo3Hut8lw/KZ2gk0 YMh32Dyacin7SO1EmJxHMvy2d7B2ArUNsQAcSvJsygMdH6aMO76S8jKIRaZ/HfoZ9P0pVwLfi2cG 6N9aSls7k+G/08IQ0MCcyPbz9FzP7sfGX9hmeUOLc3FWQ3/uT925fLqO9W53D306nfkP7JnMfzbc 4pOKy8RHMQc63TuWcsVdu33XLgBdj0AwhxPZ/cH9zpzLPrvAsocQP0yyZ859APeylnbmyKpdAPoY gWAHh7LY9MzXM19FHmsBWFVcS3nk/3TKXRW+h+jPWso+Pp2yz2tNWz6WWN/Fvu9rBIIdPJvFD/DT cyz/7BLLF38av41L4T4cSncvThcl1ufc932OQLCD17L4AZ5n0qezSyxfbB3XowN0ZS1lX7Y8V9VQ Y32O/d/3CERVQ7gN9OgSv3uksyzYjT0pc60oAss7mbIvfZ9Tx5NZbP6tPRnAzRhDKADL3KfvzVp1 PZsBnAU1bOOOE+pZZt6tBzvLoidDKAAM154kL8UXYotYSxmicOZf16hHIBQA+nY4yddqJzFAx7Lc hw/dGPUIhALAKnypdgID9JXaCTB+CgCr4Ex297y3lt4pAKzC0Cfcq8E+o3cKAMBEKQCswtXaCQyQ fUbvFABW4XztBAboN7UTYPwUgPZdrp1AB35ZO4EB+nntBDpwuXYCbE8BaN/nk7xaO4klXEzycu0k BujVDPvK6dWUtkvDFID2fZzk8STfTnKjci67dSPJNzK8vFtwK8Pcd7dS2urjKW2XhikAw/F8ki8k ea92IrvwTMoVAIt5J2UfDsXllDb6fOU8GJFlp3zdydkO1tFnbLY3ZX6d2nntNBWumUC7MZTpoF/J 1i9Zr53XdrG+w77vIn+W1PcBONvBOvqMe3ksye8byG9zXMhyMyiytUMp+7b28d0c7yY5vk3etfPb Lta3ybur/JtmlsbhejXJ60m+nuSLSR6YxVZnYX36JOWe9fMpd/u8nOGNWw/BO0n+KmVivS+lTK+x P4vNVb+Mj1OGId9LOd7/njLuD73ouwKf7WAdfQYMWe3+4wpgG74EBpgoBQBgohQAgIlSAAAmSgEA mCgFAGCiFACAifIg2PgdSvJkytO5Gw8Pwb1cSfJWkreT/DTlATSoxoNgizuR5FoD2yCGGdeTnMxy am/DdrG+gvybZghovE4n+UFWP1UA47EnyXNJzsRowSgpAON0ImWOIOjCo1n+SoAGKQDjcyjJ92on weg8m9K2GBEFYHyejGEfurcnyRO1k6BbCsD4mIufvjxYOwG6pQCMz9HaCTBaR2onQLcUAICJUgDG 53ztBBitt2onQLcUgPG5WDsBRuvt2gnQLQVgfH4U7+SlezdSpoZgRBSA8XknyVO1k2B0nol5gUZH ARin55P8onYSjMavU9oUI6MAjNeXk/xLDAexuBspbejvktyqnAs9MMHTeN1K8q9JXo/poJmf6aAn RAEYv3dSxm+natkpee/rJAtokCEggIlSAAAmSgEAmCgFAGCiFACAiVIAACZKAQCYKAUAYKIUAICJ UgAAJspUEO07WDuBmcu1EwC6pQC0/8F2qXYCd7ia8sax/0jyb0k+qZsOd3gkyVeTPJwy4d++qtlA R24vGTv5fgfrmGJcSpldtHV9t5/a7k/yWuq3hyHGs3Ps31G3H98BJP9TO4GBOpjkXEonciVZx/Ek v09yrHIeQ/XftROoTcdNPqidwICtJXk6yf8mOVU3lcl5Isl67SQG7krtBGobwlzny15G7bSNh5Nc WHIdU3cryV8nOV87kS303X5q2J/kD/Fyn2X9RXYuAmNsP//PEFD5UvO92kkM3FqS00n21k5kIn4Y H/7LuhhXAArAzE9rJzACDyT5Wu0kJuBwyvAPy3m9dgItUACKn9dOYCS+WDuBCfhK7QRGQp+PArDh fJI3aicxAkdqJzABD9VOYATeSHnx/eQpAJ/6du0ERuBA7QQmwNj/8vT1GQXgUxeTvFg7iYHbUzuB CfBF+3JeTOnrpPFblGZWeRvWgZRbQp3JLq61NjW22/gupZ35oYbmgySfz+6e/Rlb+7mLK4C7fZDk yzHHDYzNJyl924Ofd1AA/tRbSb5ZOwmgU9+ML37/hAKwtZeTfCPlCVdguG6l9OWXayfSIgXg3l5M 8rdxyQhD9UFKH36xch7NUgC295skX5j9CQzHG9F3d6QA7OxyykRn/xBzBkHr3knyeMqZ/+W6qdCF ll7IsJbkRMo8+Dc7yG2M0Zqxbc+l1D/GrcXNJL9K8vV0P8X92NrPXZq+R3Vm2Z3Y1zbuT/JYkr9J eSvTgdm/Tf1JzdbaVKvtZ1GXMu3nAK6mjO1fTbkifzPJL2b/3YextZ+7NJ3czKgPQAO6PktpbX+P rf10XQA+G0Ml2xlb+7mL7wAAJkoBAJgoBQBgohQAgIlSAAAmSgEAmCgFAGCiun5qrkXNP423pCsp 09y+neSnKY/CQ18OJXkyyeEkR+PBR3pW+zHzIcX1JCcr79/WjG17LqXb43VwF+s+keRax+sfezTN ENC47EnyXJIzmcbVHatzOskP4p3Eo6IAjNOj2f2VANzLiZSJ1hgZBWC8nk0Zr4VlHEryvdpJ0A8F YLz2JHmidhIM3pMx7DNaCsC4PVg7AQbvcO0E6I8CMG5HaifA4B2tnQD9GUIB6OtFDwB9ulI7gZ0M oQCcr53AgL1VOwEGT/9bXPP9bwgF4GLtBAbs7doJMHj63+Ka739DKAA/SnKjdhIDdCNlaghYhv63 mEH0vyEUgHeSPFU7iQF6JuYFYnn632L0v46dSf15PYYSv8r8U0GMfe6TsW3PpXR7vA7OuV79b/7Y Tf9jTmtJvpMy4VntA9xqXJ/to900vq5zaM3YtudSuj1eB+dcr/7XT/+r6r7aCSzAdLR3W3Y66K4/ 5FprU8tuX2vbcym7m8FzJ59NcnkXP6//3W3Q07G31rhbNLYPkM0UgO21tj21C8Cqje34NWUIXwID 0AMFAGCiFACAiVIAACZKAQCYKAUAYKIUAICJUgAAJkoBAJgoBQBgohQAgIlSAAAmSgEAmCgFAGCi FACAiVIAACZKAQCYKAUAYKIUAICJUgAAJkoBAJgoBQBgohQAgIlaq53ACtwe+Prv6ySLdtU+Pjvp Oz/Ht+31j/r4uAIAmCgFAGCiFAA+aXRZbK3rfeyYTZgCwNUOl/VBh8tia10er1sdL4+BUQD4TYfL Ot/hstia40VnFAB+1uGyft7hstia4wW7cHvgsQpnO8jzt1nstuLa+7d2LGK9g/VeSrJ3wfXvRu39 W+P40JDaDWgIDfBgkmtL5HhttoxF1N6/tWMR+5K8v8Q6byY5uuC6d6v2/q1xfAbDEBBJcjnJU0v8 /lOzZbAaHyf5xyV+//kY/2ciap9BDOkM5HiSj3aR20ez31lG7f1bO5ZxLLu7Erie5DtZ7QwAtfdv zeNDA2o3oKE1wPuTvDZHXmez+LDPnWrv39qxrH2Z7zuBC0kOd7C+3aq9f2sfn6aNep6LmaEfxFrH 6JEkX0350Ng/+7erSS4m+XGSX3e0nqEfn2V1dXyPphyvo0kOzP7t4yT/mXLn0Osp9/2v2tCP76g/ I0e9cTMaYNuGfnyW5fi2bdTHx5fAABOlAAAAAAAAAAAAAAAAAAAAAAAAAAAAAAAAAAAAAAAAAAAA AAAAAAAAAAAAAAAAAAAAAAAAAAAAAAAAAAAAAAAAAAAAAAAAAAAAAAAAAAAAAAAAAAAAAAAAAAAA AAAAAAAAAAAAAAAAAAAAAAAAAAAAAAAAAAAAAAAAAAAAAAAAAAAAAAAAALCQ/wOJVPpkaYmG1QAA AABJRU5ErkJggg== "
       id="image874"
       x="83.76207"
       y="219.72197" /><image
       width="22.550148"
       height="22.550148"
       preserveAspectRatio="none"
       xlink:href="data:image/png;base64,iVBORw0KGgoAAAANSUhEUgAAAYAAAAGACAYAAACkx7W/AAAABHNCSVQICAgIfAhkiAAAIABJREFU eJzt3X+I1fud3/Fn0lMY6EAHMrAHdqATaumUuGSWusSCYc9SlxhiwaWWWrhlJ3CXWmqoIXdZSwyZ 4C422MUUA97ilknxFjdYMGDALQZG8C4avKCgxRvmBg26jEVhLN5lhBGmf7zPyZwZz8w53+/38/P7 fT3gjXqvnvl8v+f7/Xy+38+P9wdERERERERERERERERERERERERERERERERERERERERERERERERE RERERERERERERERERERERERERERERERERERERERERERERERERERERERERERERERERERERERERERE RERERERERERERKL7TOwCiEhjjAMzwC7gC93fT3b/+yQw0Q2Ap8Cb7u+fAY+78cvur/eAF0FKXWNq AETElwngAPC7wH6s4nfpE+A28NfAh8ADx58vIiIFTAMngbvAeuBYAk4Bs74PUkREzCRwFLhJ+Ep/ p8ZgHmj7O2wRkeZqA2eBVeJX+NvFGnAR2OPpHGRNYwCSgxlgL/AlYIyNgcPe4CHAp8DHWL/wL/p+ r4FC99rAn2BP/WORy1LEDeA72HiBiCRqBjgOXAKWqfYEeLf7WZNIVePAadJ+4h8lLmFjFSKSkIPA dfx1BVwFDpPXU2sqDgKPiF95u4pVbMBY14JIRGNYV8JDwt38z7G3glaA48vdFHCZ+BW2r3iIZg2J RHEYq4xj3fz3gX3ejzJfB4j7/YSKNeAEeiAQCWKStJ4qL6Lpgv1a2BTKNeJ/NyHjJroORLw6SJpP lSvYG0nTtfE3DpNDPAF2Vz6LIrJJC7hA/Bt8WBz3dQIy0CbsWEyq8Qrr/hIRB1qk1eUzLM74OQ1J 24Uq//5YA45VOqMikl3l34sFmjMoOEP19RZ1jSa/EYpUkmvl34vL1L8R2IUq/2HxTumzK9JgOVf+ vZh3fVISMom6fUaJNTRBQKSQY7i/EV9hA8n72VjKvxt7QjuDn8psrfvz6mactLJ3ph51vQ5EnNuN +3wxtxi+ocgY1hC4nr++TL3mh+feNRcrlrGV0SKyjTHcbwYyT7G++L2479e+XrAMKTtB/Mq0P1ax t5EFLD/PPHAOuILNy49dvv64RX2uAxHnzuL2hlsoWY6O43KsYxVn7mZJZ4XvZeAQ1h21k71YFtJX CZR5HWucRGSLXbitXJ6wsUl4GecclmUdWy1cpTyxjWH5j2JXoDexSr2oNjYGlEIDdrBE+UVqbQG3 N9mhiuUZx33aifmKZYrpDPErztNU70I5SPy3gScMf3MRaQzXT/+ruOlrveqwTOvk+xYwS/zK3+V8 +hQWr6krSKTLdXfLHUflOuW4XOvk+RawSNzKct7DMe0h7pvAGuW6skRqpY37aZ+unq4OOy7XOvm9 Bfg4B0Xiqsdjeyfysd31eGwiWXgP9zfWKUdl2++hbOvkkyisBSwRr4JcY/j6jaoWIx7fOtXHqqL5 bOwCSC18xcNnziT2OVv9c0+f69ox/FfAO/kA+MTzz/im588f5ruRf75INOO47/5Zx55aXfC1B8GK o/L5FvPpf51wm6vE3sQm27cAkSoO4u+mctHP7npVcn/scVA+n3x+N6OEq0Z8FD5yTxWJLMcC1AUk Vfno/un5dsV/fxCb/uhL6snB/kPkn/+Tmv6sQWaBfZHLIBKcz5WlVabZTeA/j8y1kmULYYa4T8Tr hB8o99EVWSQu+D9EkbT4vukeYikMirrouVzr2Bz0w1gjlVqWyHniNwBHfB/kFrHHO1Yod61Go6x2 UsUY/i/4GawR+DpwY4S/P42lpOh4K9GGcSyhWb+nffEM+Ju+Pz/u/rfXAcr2tQA/Y5hngX/eU+LO eJrANpOP3R01MjUAUkWoHPnT2FzvHwL/DXgw4O9MYU/jp4ibo2WK4W8DL9hoIJ5ijcTjvj8/BV5W LEMKA9TTNf95g/whagCkIUJvknKsG59ijcDH3TLswbY3zMUkw8v7mrffHPrfJnqNxSCpZKoM3S2W QjfcfqxefRO7IKNQAyBVxEqHMI71u9c5D8sY1p0xrEvjMW+/TfxrryUb3T8O+LNmSKM+G8ceSG7H LsgoUjhhkq86bZOYq2nS6PoY5BDWkIUY80hp0/YDqAGQBgg5yPcJ8CHwK6wP/SX2xDuJvYlMAZ/D 5mLvRtd2Csaxwfi/CvCzUhj07vnd2AUQCaGDvyl1z7F51Yco/qYxjvXFniZ+zvimx+KQ78qFTqRj 2y5c7WUhkrRp3N44vUq/N5DmQgsbFL1CGlsJNjF858nxme6jbITKgSQSzSRubpZl4Cj+n5rauN+2 UjE8lvA3S+tEAsc3KJQcThrhEeVvklVsxWro2UQdbHFZ7EqiSXEd9w38IdJ9qzvh+FhFknSZcjfI InFnEY1hjU+qFUgd4zLuVo4fIP7G8DvFRUfHKZK0MruB3STuat1+7xK/smhS3KF6w3+M9BvuxYrH KJKFfRS/OVJbwHWW+BVGk2IFe3Ao+jYwS/yNX0aNhwWPTSRLLWz2TpGbP7Upch3iVxhNjCXgJDvP mBnHsopeIv2n/v54tMMxJeMzsQsgtXAB60oZ1e8xWmbPUMawAWmJ5xmW2+kplkdnElvcN0NmKZa7 3gB/N3YhhkntSUzy9GOKNQCpCZGqQHbWpl6pRbKoW7MopCTvBpaeIaeMnFXcwHK9tLHFcL0U0Dk+ qUqDqQEQF94Af0Fz5j5/g8F7EkxijcJUX/xm3+/bNKeRlAxoDEBcaWMDX6M8Bac2BgA2cDeKD4Ev V/g5Y2w0CNPYees1Ev2NR909wN4aH3f//AL4277//xvYAsFe11Dv9zlJvn7VG4C48gz4gLzHAkbx 5xX//Wsss+knQ/7eNJsbhN/s+/N099dc7t+XWJfZz7u/3qbcjmeT2FTQWeCL3V9T2QdgqxexCyAS 2gyjTZHrRCrfTkYp991opRusVyEeJL2cOEtYNtZ93o7e9KaJXiStlcGaBiqN0sLmao+yMcd/Bn7h tziFLYzwd/6AdPd7ncDWWMT0GvgRtm/zvQg/fwzLD/Qt4u+J/BHwO5HLIBJEi/I5gXKJ687Olj+x noCfYyt7Y20ROsg+4CrxrpfL/g9RJL4mVP7L5DEAeZ+w52UNOE9aFf9Wh4EnhL9mToc4OJGYxon7 lBWqktvv6oR5do1w52WRfDY9mcAaqpDXzdEgRyYSyTiW1TN2Be075h2drxAu4P98PMEGXXO0l3D7 QBwIdEwiwTWl8r/m6oQFcgy/5+M8+a92bhFmH4iUu8VESmtK5f+Q/FbtzuLvfJwLeBwhHMZfI3A/ 4HGIBNOUyv8WeQz6btXCspq6Ph9L5P/kP8gp/Fw/50MehEgITan8L5PObmVl+PiO6rq6ewyb4eX6 fM0FPAYR75pS+Z8hzbQCRZzB/Xmp49N/z2ncn68m5HKShpik/pX/KjaAWgf7cXtuHoUtfnAHcXu+ boYtvog/bfxNm1vx9LlF4zKwy9UJS0ALt90ai2GLH1wHt9fT8aClF/HEZ+V/GauoDmEJ1mJU/HdJ MymdCy43uVcDUCzU/SPZC1H59zuAVTQhKv4n2KBm7n39O9mHGoBRdXB3rtT9I9kLXfn363T/juvu oSfYU7Hv1MQpcZX/Rg3A6JHrCmkRIG7lv9Us1p96heINwgpwh+ZV+v3mUQMwig5uztMyGb5Vaj8A 6WljN/uMh89+H9tH902Fz5jFltePYzOTer/Cxi5bj7u/ltltqm4msEqp6hTOG9gWnnXVwU0j9x3g Tx18jkhwPp/8zwY8DtnMxWCw3gCGxyp5rhwXYQZ/+dJV+cc1TfV8N2oAhseF0IUWcWEGP0vhVfmn 4yJqAHbSodr5WUFP/5IhVf7NME21BHFqAHaOk8FLLFKRz8pfKyHTcxI1ANvpUP7cPCLzPEmaBdQ8 M9hN7eO19ZvADzx8rlQzhuWoL5Py4iVwz21xkjKBzTAr418B/8thWUS80pN/cx3Az/fe1LhY7PSL xKXKXy4Tv+KsQzxBWz5KRvbip/JfA44GPA6pZgLrt45dgeYe+4ueeJFY9gGv8FP5Hw54HOLGHvxv iF7nOFP8lIvEocpfBjlO/Io0x7hKhvl+pJlU+ctOrhC/Qs0p7pP3XtHSIKr8ZZim7PPsIpbRRi+S CV+V/yvqu4NWU6kRGK3y95EhV8Q5n5V/U/Pq1904/jLB5h6q/CUb+1HlL+X4TAeeazyk3MppqZHp LZHqDIDD+Jnap8q/OSaA68SveFOIuzQkw2fTcwHtxl7xdgFf6Pv9Tqv8XnbjcffXF8CvgI+AD4FP /RV3oMPAJdw3Ti+AP8COSZqhBZwH3o1dkIg+AP494e9jCWAau7gv4W9l7C3gNJZ7xfe0MV9P/ur7 bLYTNG+x2BrwnouTJ2mZwtLhxujj7DUIJ9jYv9YVVf7iU5O6g56g9A61Mga8Q1oX8Sq2dVzZ1LP9 VPmLTx3i3y+h4gJK7FYbY9gyd19ZL13FTawSL9Nvr8pffFsk/j3iOx6idS21kUvFvzWedMs9akPg q/LXlDfpOUT8+8J33CHznbxkwxGsIo19UVWJ+1jK5p0cx1/l34gpbzJUC7sWY98PvmMV5fXJ3i7g GvEvJlexBpxj8IXpK3ujKn/pN0f8+yBUNHmqa/ZOYK147IvIRzwBDvYdqyp/CWGM/N+ki8RNN6dN QhrD9uKMffGEiMvY9FUfn63KX7Zy+aCx4vCzfMa0ixMnYbSxwZvYF03ucRP1f8pmE7irtJewsYR9 wFnSfquYd3DuJIA95DfDJ8VQ5S+DnMLdNXZkwOfPAseABdwNMj+hejfwo7InrC5yyAX0DrZYQ9O2 qvkQ+CrKcSKbtbGK0MX9dQ/47RH/7hT2MNLGVsmPd//b3+v+tzfA33T/7jPgNZZ/6zHwtPv/54Hv Vizzl1G+qyS1cPtk0uTQk79s5zzurrPQ6RSmHZT5QuAyywha2CBo7IqzDnEVVf4y2C7crS1ZDFz2 nsUCZRwUr1DvQnLOEb/irENcJt09DCQ+lw9ZLnJclfFugTJuF+8EL7Vsy8UXqlDlLzvbg9trLZZx qg8GXwteahloH83LQ67KX2JYxM21tkb8PFJV1watYQPQEtE0muqpyl9C2I+76+184LIP4uJ4TgQv dQJSmQY6js1UidWPuNUL4DY23ez/An8He0LYhb06pzpo9APgj7EpciLbuYube+018HlsmmZMLWwq a5Wn+AfAb7kpjhR1hfhPzr1kbPvY+Ql6HBs0WkygzP1xdsg5FgG7dl1dc/Nhi76j01Q/nj3BSy3M E7/yvEq5fswDpJE+926JskvztLBUDS6uuRXS2klrhurHdC54qRtuD3EHfdewJFhVjGFL3GM3AtrT VIY5hrvrrep940PVXGHPSbd7t3Za2IbpsSrMVdxWmu9FPJZ1LMOnBn9lO+O4m2TxiDQrShcN3KHg pW6oo8StMOc8HFPsBWyNnMkgI5kn7XvHhUmqrwm4ErzUDTRJ3Jzhvvr6WthspljH9QrNZ5a3tXF3 v90n7TfNqhNK1rD6STw6S7xK0vfg1SxxxzUueTw2yZPL+y31LhIXm9qnOL5RG23ibucY4stdiHh8 62hAWDbswt39thi47GW0sMHcKsd5J3ipGyRmiudQmf9mIx1fL275P0TJhMuHkX2By16Wizee3cFL 3QAut54rExf9H+KvuZpvXTZSWVUt8bh8EMlpcNTFcZ8JXuoGOEHcSvGw/0P8tTMej2OUSCFHi8R1 FTfX0hr5PRFXXaD5hLQHu7MU+6k45AyZ2NNcV0lrpaaE1cHdtbQQtuhOuFiXcyB4qWtsL3ErxFf+ D3GTgw7LXjY0m6G5XC2yXCXPqcVtqs/Gq/2MupCvOH8Y8GcNEjpjYQqbr/87LEOoNMsh7IHLhfex rLi5eQb8jGpP8YfY/PbzKbZR/dNuPGZjg3rZwRhxB3/Xuz8/JBfzkV2EXmObpc4J34o6Qph7bBl7 4zqJJaWTLQ4QvyJcJ+zm6C4Tb1UJDQY3yxzurp2TYYvuXKwHzyVsunsu02a9c5Gr20WE/EIueDyO IvHQ94FKMsZwl/BtmTQTvhUV+z58guVhyvlNqrKYWT/745TvA+3zxONxFI1GX3wN4nKa9buBy+7L PuLff+vYm8h71KNRLWSCdDZ6D/U0nMpF14vU87dIdS4XWS5Rrznwsaef98cyNjuvMQ1BKoOhISvD FLa47A+taqw/lwsPQy6YDGGe+PfgoIbgHY/HnIyTxD/Z/eH76aaTwDFuDeUGqjeXCRbrlgjtGLYG KPY9uF1cJOzklOAuEf8kbw1fYwHjpLFH8NZYo0GvnA20gLtrpRO26N5MAdeJf++NEkvUeEP6qvt0 +gofr1+ucq/4CFcLgyQtM7gbY7sWuOy+7CP+uqOisYYNEtdOql/EGu76OlvEn242LOrWryvG5XhT HTLIHibtLp9hcQ3r0quFNvFP6LCouthlEtsoI/ZxDIu5iscp6XGZXytkqnRfjpHOjMMqcd31iYll mvgnc5RYpHgfXAvL+Olq4Y3vyH1Vp7xtETfXxhq2c1jOfKZ9uI+NZc5jK+vv4H9XwxNOz04kHeJX fEXiCjY2sNPCqV1YZZrS3OJR4vQOxyT5cZlt9mzgsru2B/fdPqtYn/x2M3Ra2JRyXws+16jBwHCH +BVf2ZN/H+uPW8BejxdJa3Vv0VjY+auSjLSAu7i5Ll6Rd59zG/dv4bcYPanbBP72AF8i8ymiqS0C a3LktKWf7GwOd9fFfNCSu+d60WXZNTO+dgDMemxmjvgVn8JiceevSjIxhrvux2XyzhN1GLf3yCrl 0zmPYalmfNy7nZJlGuqzvj5YRLw4irsB2+8DLx19VmgTuB+7+A7wccl/+xr4On42h/mWh88E/Cd8 ymknoQfAC2yXH7q//9u+//8b2EXX7kbv97nQrkX5mwC+7eizPgF+6OizYvgW7reqfL/iv78N3MP9 4O1B7M2kbOO0Ld8NQKqVzkvsy/p599fblHsSmsQWz8wCX+z+OkOamRRzaoxlsOPYNefCn5Hu/TnM GDbn36UHuNnG9TZ+Zu98C/gjD5/r1R7i9333YgmbCul7U5hxbE7yRdJakZj7VL+ma+PuerobuOyu Hcf9/eFqA/ijHsq2jo1P5NTjAMRfCLaKLdyItcR9DGsMUsiHNO/3UMWzc7i7FnLfJ9rHGpx5R2Xr eChbtvfwOHEqu+fYIo6UZjjsI26yuLrs8NREu3CX4mAxcNld89Wr4GrvbJ8rkrPc3jXk4qk17ItM qeLf6jBxFpQdCXFw4oXLlOq5Z4Wdx8/94WofBF/rAXqRXTdQqJzci8DuQMdU1QTWUIVsADohDkyc m8XdNVCHxYC+ulNXcTN5w3d9l932ri77LgfFE/J9ut2Lv8UjW6PsAheJy1WFUoeEb5OkXblO4X/i h9PJHCGmK/7S42e/D3wTW4SRo9vAb2HJ5b6Nv+/jJR7mENfcFPb0PYlNZvj73d/vNPf8KbZ+5P9h 60kes7G+pIwOsL/kv93qR9jc/5z5bsDOATcovzjuPP5z9/iexeicy5zl/XEu5EEEcBh/ucyvBjyO HE1jg+TngJu438ToOZZj5jyWHmV6xHK5SviW5RTCAd7B79P1OuWTJs4FKNs6VkdklSCuhfsbaol6 7nF7Cj8XjfYC2KyN3bALwCPC3Lhb41H357/D4BvaZZ6buqQC93V/DDpfReqXOcKu+cluIN91xr66 Tmkcw88GM666EXI2jlW210lv16hV4DLWBz2GPTS5muu+Qtqz4opYINx38pDhFe0UcaZ2d0Y/ZWlw vXKvjk//Padxf8Fk9croWAdble17BydXsYLbmSR12mh8gbDfxRo26+gctsK3g004OYN9R7FW+neq ncbwduPu4B8FLntoLnd6Wif/Zf9ltEhnBXbMWKZeD0vXiH9OU4jDVU9kT6ikZQ+64WKe/mMHn5Ey Fwmp+t12/HkpG8Oe1P4jow+01tl/It8ZcoPEbMyespE8b4q4CR+dvdGHPIj/gb06SVi9bKX3YhfE oxbWv/9t8p/r7srHwAexC5Ghp8CHWKbgG2xM7d1qHGsI9gJfwqZn5rIQNYo2bgbfFkMXPLAOfl4b r1DPxWCHcDddsk6R3YrRESzg51wtYw+nVZNGTgEn8JOsrj/mKpYzGhd9eIvBSx1WB38Xzhp2E9Xh KTnWDIwc4maF85oy13l2LmGZUX30hHSwyQc+Zpxlm83VxSbxi8FLHVYH/xVEL2lerouD5nC/tqRO 0Sl7YhN3Ejfn5w7h5tLvwf0baq73LVD9ZCyGL3JQHcJVFKtYbhFXu0z51kZP/cOizqu+D1Dt3Kxg kwRCD+C2sK4hF1ORVwKX3bmq+bIXwxc5qA7hK40VLM1uyguGdhMnjXZu8Qg/WxKmYJzyXSqLxH/Q maF68sdbwUvtWNVVjovhixxUh3iVxwq2cCi1ueMHSGt7zdRjlYwHCoe4RfHzcZN0FkNOU221v6uN a6Kao/wJWAxf3KA6xK9AlrHV2ylsbn+U9FI35BIXSK8xr6JNuQYgtdw5c5T/To+FL64fZb7IddQA hIwl7GKN0RC08L+7UhPiDjunsM5BGxurKtOHvkIaDzL9pin/feb+Xf7aHso92d3CTmDZSH0EvUP8 SmNrLOFw+fkIxnGfQLDJ8ZwM88hjY1LzVJvxtRi60CMqcyzXXRfiM64/sKCzWFdDTl4Dzzz++wmq L0jx5R7wPeAnHn9Gb6ZPXQcyY/kU+Cq2yjV1Y1i98CdUn5hwA/i9qgXyYL3Ev/kj4C9cFySmCTSz I8dYxM9c813oevAZr0j7TaBX8btMib4Y9AhGV/Q4VklnINupvWiQL9dYxN3byjjh9kducqTYCLSw sSYfKRQWwx1GIUWP43KcYoYxR/wbQ1E+rlCtIWjhNge+YudIqRE4gt/cOYvhDqWQoseRbfqHUZ0j /o2RY6SUCG2BcnmGzidQ9qZF7EYgVBK/xVAHVFCRY7gSqYxB6SmwePReC2dJJ0VCL+HcqLOtjiVQ 5qbGCuETA3awhVmhjnExyFEVN2r5X+Fx6mfsWUBbTWLTPOuQrdK3D4HfZ/OGHx3gu6SRDOw18D7w fbaf9XQAa7hSm6fdJA+Af4b7jYi22oOt6+h4/jlbvSTNvTA6I/69Pwb+i8dyJGc3WvY/LB6yc16T lHLkv2JwnqHcvueHWAV2BOs6me4exziW42U/tmr5EvllKvU5wDiL1nSUjbs09OHIRdrousYyo293 +A7+N6cYNVawdL5jWPfQowTKNCxWgVMFzndPC2skcurSPFnwGIfZRfhN3OsUa6SXwiKod9H00K3x iuILpFrYk6nLudVVYpl03k62i944hou+1wPA/QSOaZRjdjHTZAo7d7p3q0VuC2S92Ec6FVfsWKHa rI0xLNNnbt0ToeMVcLDkOd5OC0vMFvvYRrnGyqZKqZKvR7E5XL+NZW0KS2gV+0uJGQ9xNzDey6+i G/XteITfjb1zeKu9WPCYUrmeenta7CWP7sXt4myRk98U49iFGfvLiRHX8LMEXE9sm2OZMJkW34l0 fEVilL7nMaonanMRgzYzapPnqvJLI5z3RjtJ+k9QLuMM/mcB9AbrmnRet8YqYQfcUk9zfWeHsvvI 11P2O9tpO9NJwq43qBqXaeiMn6KasDvUGuF3dNpNc6frzVU/fYW0sAVKsY97p3h3QJnnSKfiH2Ws Ypz0Z2KtYQ+2qvwL2EX6X2zZuInffuhh9pB+5eQy7ro5bYXNkvZb1zIb3SpzxJ9OXHZmVot0U408 ouFTPas6QvwnElexwttPXTF1SH+6pouImWRrYYdypRBXiH8N9Cr+qpMg9pHWuMAlqu91INhJPEPe g5kL7LyyN6ZDpHXjuIxbDs9TGW3SfguIHVdwmxamhXW3xKwrlrGJAOJYjrNaHpJOWt6d9Pp/HxH/ nLmMEw7PUVk5DVSGiqrpxYeZxmbXhTymJWxB5pjH4xI2GoKUB4qvYYuNchv4SWUGiKuIOdbSc5L4 5yGVWCTsVqAzWKoPn7vQ3cLeoiWwMexVK5XB4udYV9W0x2MOZZw05oBXiSeuT0pJe4h/LmLHIvEz 2O7HumKrPjiuYpX+aTJ4u08tHbQvU1hj8BVs1D3ka9gD4M+Bv2Rz6uY6mMDST+f4avszLJ12bONY pdNE94BvYhu3p2IcG3fYhb0hfKHv9+PAG+Dpln/zAPhr4HY36naf18o4NvPjNLbgxXdX0ZkwhxVV G8t1k9OA5oKXM1FOzm9SZeIu6hZJQlPeAIZpY/3BM8A/ZGN61nTf/58p+dk/Bf5FlcJlZBfWp3ok dkFG8KfAd2IXous+aYxH+PYJtsHJT2IXRKSIA5R/2nkUobyxnSL+U+awmPd18CXUfSbQEjaLLLdJ D7WnL2Q0VbaUm8a6nXxvuZeSTuwCjOBzsQvQJ0QSuhieYm9ZH2B95yLZqtJPG3JqW2xTxH/iHCV8 boNYVOxz4TqWsenCuU0MaJzPxi5ARj6u8G+b0L/b43ozFV9SeepOpRwuvMBm9Xwe+AGaDZM8NQCj q9IN9AVnpUjfv4xdgBHtwc8+C0V1YhfAgZfA94B/hCr+rKgBGN0vKvzbsjOIcjNJPhVai7iJ4Hq+ FrsAFfQq/s9jg+ovo5ZGxCPNBBouh92u+uOCn9MwsjHSTlmyXRTJyS9SC22q3TQpdDf4dpb4lVOR WCFuFtaj25Qr9bjq42SIpE4zgXaW43z2WJtwT5LvCuBlD+dDJHm3KH/TzIUvbnA5dmes4Tbn/KhS 3aVq1Eh1/wopQIPAxWgm0PZ2k2c3VwvbnSlk2Y9g3T8585mvXwJRA1CMZgJtL+cKYQ/hBoRD/iyf cv6+pUsNQDFaDLa9fxq7ABUdwX/m1t3YAGqOb0pbfTF2AURC00yg7S0Qv1/aRVzBz/d0hDzHSLaL u25Pj0geNBNosEXiV0ouKzdXXRwT5Dc9dpR45Oj8iGRFM4EGu0/8SsnL7fKrAAAK1UlEQVR1LFA+ V88Y8B75TvUcJUQap8r0vTrvDlaXjeK3xirWb3+U4fs5jwOHsUHeup4PNQA1ov0AitNMoMHqmhZg DMtw2sty+rQbz7DcN2PYsU9jbwtNuqfa2HmQTDXpYnVFM4HeVqeUxsNM0azj3Yny/WdO00CLc7E7 WN3oQaKZJob/FUmZGoDieq/+ZdW5G0iaRQ1A5tQAlKNuIBFt/JI9vbqXcw/YW/Lf1jEn0OPYBfDo E2zQ9wXwKfCr7q8v2BgAbWPJ0caBf9D9dRIbK4iRaC4UDQBnTg1AOZoJVE+fYI37z7u/fkT1Xa4m sAWAs8CXur/WpVF4E7sAIjFod7C3xZ6TXjauAocI2589gV1D54Anjo5D6wBEAlFOoLetEr9CGjWe A6cZvrArlFngJLBE/HOjBkBkBMoJtFkOlddNLClbyvPXDwLXiH+uhsUjXydAJAfKCbTZIvErpUHx CutqyW321QyWi2iN+OdwUCgbaA1oGmh52h1ss8exCzDAXwL/BPgG8CByWYr6GPg68DvAh5HLMkiV qdCSCDUA5Wkm0GZPYxegzwPg94F/Q1rlKuMe8GXsWB7HLcom/yd2AURi0kygzY4Sv1tiBThOfac3 jwMXiX+e17GspyKNpZlAmx0iboW0QH0zkm71DvF3F8ttTEXEOc0E2jBBnIroIeVXZedsGjv2WA1A yjOpRILQTKDNQu8KdpNmJyRrE6cRuB/i4MQ/DQJXo5lAm4WcrfIx8FWqp2rI2TPinIOfBf554oka gGo0E2iznwf8Wf8WS8rWdI+Bbwb+mf878M8TSZJmAm22izBdEFqE9LZHhDn3q9RvAkNj6Q2gGu0O ttknhEkR/NMAPyM3/z3Qz7mN3rxqQw1ANdod7G0hKucqXW91FWqls7p/akQNQHXaHWyzHwf4Gbmv 7vUh1EDwXwX6ORKAGoDqNBNosxvYbllSPx9R7XqXxKgBqE4zgTZ7A/wkdiHEi1DjDBKIGoDq1AX0 thDdQBLWp8AHsQshbqkBqE4zgd52A20YHprvBHgfoNk/taMGoDrNBHrbG+C/xi5Ew0x5/nx1/9SQ GgA31A30tvdpdpqGOvmoG1IzagDc0Eygt70EfhS7EOLEn8UugPihBsANzQQa7PtYd5Dk6x6a1VVb agDcUBfQYM/QzJFQfG2G8z1PnysJUAPghmYCDdYCfhW7EA3hY4MWPf3XnBoANzQTaLMWtuHNQ+C7 cYsiFejpv+bUALijbqDNFf8Clh5a8nQbPf3Xnu/FI01yj/J70+Y+E6iFbVT+bcJU+l/Bus5kwxcd ftZr4OsOP0+k9o5TfpONqxHK60LviX+J8PvSKvzFe4hIIU3aHUwVf33jLuoZECmsTbUbL4eZQKr4 6x1rwCwiUsoK5W++PRHKW8RhVPHXPU4iIqXdovzNd5w0X70PYd0CsSsnhd+4RprXn0g2zlPtJlwF 7gDngHeJ+zquir85sQRMICKVnMD9zfkIOEW4OfWq+JsVr6jPOhSRKCaAM9ggms+b9Q7WVeTjaU0V fzPjMCJSSgs4Cjwn7E27jM3GcSGliv9VAmVoUpxCRErZD9wn7g18h/Krj1Oq+Bex8Y4ZrHGLXZ4m xFlEpLAWdvPEvoH74yKjryPokFbF39lSPjUC/kOVv0gJ48AV4t/Ag+I+Ow8Ud7AKN3Y517EG6NAO ZVUj4C9U+YuU0Ma6XGLfwDvFc95+ou6QTsW/BBwZ6WyrEfARqvxFStgNPCH+DTxKrGED0x3Sqfif YIPWRRcazWCppWOXvw4xX+zUiwhY5a/ZKeViGZu2WmW3qglslWrsY8k1XrFzd5uIbGMC5b8pEyvY E6erbQpb2DqL2MeVWyyhRV4ipV3F7Q15E5t7fRgbsB0H9mFPyRewVBCxK40qsdo9Pl9pBebI/xyF iusovYNIafO4rRiPjfAzZ6iWUC5WrGIDjO0RjrGqWdKZxppirGLXrhK7iZR0AHdpHe5TbNP3FpaW N3ZFMkqsEWfv3xZWyflOvZFb3KLYtSYiW0xQLa9/f6xS/oZccFQGX3GZ+Ju+7ybPNybX8YrR3jBF ZIh53N2YVW7KCdKcenqVtHaNamF72LpqtHOLy8BU5bMoIk6f/m86KM8RR2VxEYu8vcgsJRNY492U KbvXSashFsnePO5uUBeZFicdlqds3MXGRHLRxgak6zpbaJG0G2KRLLl8+l/HXZ71WN1AD8l7AdEU tnYgdKpuH7GGdb11XJ4gEdngeuaNqwFS12sRhsUS5dI2pGoM60pbJH5FXjSeYG+l6uMX8cx1zhlX i3AuOi7XdtFL21CXin+QGeyt4BHxK/ftYhXLOHuQen8XIsnYhfsb2VX3ie8MpCvYXsau0jbkYhZ7 60shw+sScA4ba2na9yAS3THc39QuUu+28D+Yqe4FOwdz2Hd2E79TSlexgfUL2HWnhVsSjV4xzdc8 fGbHwWfsxv8T4TTw1PPPSN1T4Edb/tsu7C1hN/A5bEZWGztfk2y/A9unwIvuZ77s+/2vgI+AB8Ab l4UXkfLG8feUXXUm0GVP5eoPrSAVkcY6iL/K9Tn2tFjGYY/l6o8LJcsnIpn7bOwCJMBnPptJLKdP UW3gvOOybEerSUUaSg2A/5zpB7G5/KMOth7GMoiWfXMoajcaCxKRhrpAmK6WFbbfEL2FPYmH6PMf FNOFz5qIZE9PftvP5nBtAriEzff+GfAaO/8zhJntIyKyiRqAMLtY9Ztk+zcBEZFg1ACEbwB6nrIx H3wKfRciEpgqHf+Lcp4CHwI/B250//xiwN8bxxqCvcCXsM3id3sum4hIo13D/aDqMpZ0rOoUyyks T8+ShzJqEFhEGs/lLKBLWEIvH29WHSwzqI+N0H1PhRURSdI81SvQO1jXTQh7sGRiLt9WREQa6V3K V54rwFHCj6W0sK4hFzmMrgUuu4hIMg5QruJcJNxq3e3MUH0jGxdpq0VEslRmM5ibhFtANsw01o1T tgGYC11gEZGU3KdYpRmqv39Uc5RvAPaEL66ISDpOUazfP7X1E9OUq/yfk96xiIgENUuxvv8UlWkA QqWcFpEEKR20uQd8ErsQEfzP2AUQkXjUAGz4aewCBPYYS1EhIg2lBmDDj2MXILAPYhdARCQlV2nG GMAafrfCFBHJzi6G59qpQwNwLlIZRUSSdoZ6NwArKPmbiACfiV2ABE1g6Ze3S/PwEps1lJrOiH/v G8APPZZDRCRrRym/sjbleIgWfomI7KiF5fuJXWG7jDVGf0sQEWm0Capn2kwp3nV7ekRE6m0X1TJt phKnXZ8YEZEm2IebjVdixWX3p0REpDmOEL8iLxMp7VsgIpKtOfJ6E7iMKn8REWf2AI+IX7kPi3lP xy8i0miTwHXiV/KD4hVw0N+hi4hIi2K7iIWIO9gm8SIiEkAHyw0Us+JfwgapRUQkgg7hG4Jl4BhK 7SAikoQO/scH7gAnUEZPEZEktbHUC5exgdkqFf4aNp//ODAV8iBEpN6UDtq/FvZm8BUstcQEVpGP Yw1Fz2vg6Zb4JfAT4EW44oqISChttt97QERERERERERERERERERERERERERERERERERERERERERE RERERERERERERERERERERERERERERERERERERERERERERERERERERERERERERERERERERERERERE RERERERERERERERERERERERERERERERERCRj/x9zkIpVOO1AugAAAABJRU5ErkJggg== "
       id="image886"
       x="130.68929"
       y="205.41382" /><path
       style="fill:none;stroke:#000000;stroke-width:0.597216;stroke-linecap:butt;stroke-linejoin:miter;stroke-dasharray:0.597216, 0.597216;stroke-dashoffset:0;stroke-opacity:1"
       d="m 112.29797,234.9157 c 8.43087,-0.98203 14.47608,-11.66385 15.97559,-12.6129"
       id="path1025"
       sodipodi:nodetypes="cc" /><g
       id="g606"
       transform="matrix(0.23319051,0,0,0.17433746,43.594185,202.13304)"><g
         id="g575"><path
           class="write-flat-pen"
           fill="#000000"
           stroke-width="1.6"
           __comx="447.56"
           __comy="668.368"
           __timestamp="0x18190512ef1"
           d="m 27.560127,90.362434 c -7.992753,0.819899 -17.162786,6.404413 -24.2911392,12.431136 -3.29524723,2.11048 0.028597,2.43665 1.2139574,2.02038"
           id="path430"
           sodipodi:nodetypes="ccc"
           style="color-interpolation:linearRGB" /><path
           class="write-flat-pen"
           fill="#000000"
           stroke-width="1.6"
           __comx="433.978"
           __comy="668.368"
           __timestamp="0x181905131be"
           d="M 4.0653109,103.70074 C 6.8499249,92.728386 3.0418853,81.258371 2.8445099,73.607441 2.7794672,71.038832 1.4483468,71.466338 1.3961318,73.679648 1.0488235,83.369205 3.4133118,95.024804 3.2630164,103.9387"
           id="path432"
           sodipodi:nodetypes="cccc"
           style="color-interpolation:linearRGB" /><path
           class="write-flat-pen"
           fill="#000000"
           stroke-width="1.6"
           __comx="445.624"
           __comy="668.368"
           __timestamp="0x1819051365e"
           d="m 26.089776,89.471873 c 1.47292,0.52853 1.634403,-0.115598 0.861603,-0.763918 C 17.804723,82.714749 12.360613,73.737792 3.2206572,72.472804 0.93535538,71.45676 1.198708,73.250548 2.872187,74.314756"
           id="path434"
           sodipodi:nodetypes="cccc"
           style="color-interpolation:linearRGB" /><path
           class="write-flat-pen"
           fill="#000000"
           stroke-width="1.6"
           __comx="555.317"
           __comy="639.938"
           __timestamp="0x18190517ee5"
           d="m 86.77162,140.05597 c -0.99187,-0.004 -31.62132,-6.54424 -49.15247,-15.84799 -12.40281,-6.58215 -20.58408,-18.6265 -21.60699,-21.7241 -0.76418,-2.31412 -4.84349,-2.26505 -2.86743,1.56156 10.60567,20.53768 31.72133,30.32525 74.81413,39.22508 C 188.51536,156.63868 237.32575,100.59796 221.493,47.778506 203.39472,14.924176 180.65692,3.0216757 150.10218,0.00533574 109.80779,-0.34320426 74.47202,16.413216 46.942,41.601506 c -2.57988,3.71514 -1.46726,3.00587 1.21,0.42 l 0.279,-0.271 C 77.49197,19.424686 115.58779,1.2434257 150.65055,3.5950357 185.3966,6.0652057 202.5015,28.382276 216.82717,48.811206 233.88203,124.25123 142.7011,148.81821 88.37032,140.17856"
           id="path444"
           sodipodi:nodetypes="csssccccccccc"
           style="color-interpolation:linearRGB" /><path
           class="write-flat-pen"
           fill="#000000"
           stroke-width="1.6"
           __comx="538.205"
           __comy="626.326"
           __timestamp="0x1819051923e"
           d="m 55.681,48.047506 c 13.08089,-9.4759 47.40863,-21.10856 68.25942,-26.62148 14.81611,-1.56838 25.9419,-2.39047 38.45732,1.97896 51.40333,20.27616 39.01112,63.37213 -1.44715,90.218384 -28.90427,15.01337 -61.081254,13.85291 -82.070769,11.3271 C 46.118435,119.5078 26.13282,97.376136 26.13282,97.376136 c -2.98056,-2.18542 -3.94753,-2.37814 -1.06442,0.9494 13.317631,13.477804 33.272642,27.700834 54.28247,30.600394 0.433931,0.99163 64.13582,4.48064 84.41708,-12.60092 45.60341,-27.630384 54.67387,-76.071604 1.64205,-96.197504 -16.64714,-3.99467 -29.515,-6.27197 -42.89782,-2.96948 -26.84838,8.81989 -49.79563,14.46217 -68.63518,31.30648 -1.29038,1.29639 -0.88689,2.00461 0.68288,0.55161"
           id="path446"
           sodipodi:nodetypes="ccccccccccccc"
           style="color-interpolation:linearRGB" /></g></g><image
       width="16.756659"
       height="16.756659"
       preserveAspectRatio="none"
       xlink:href="data:image/png;base64,iVBORw0KGgoAAAANSUhEUgAAAYAAAAGACAYAAACkx7W/AAAABHNCSVQICAgIfAhkiAAAIABJREFU eJzt3XFoXWl63/HvpJci6P1Df6igUG17Q7REaV2isC6odGAV6lIVHDDUoS41RAUXXPC2Lp2CSww1 nYKhbpmAC25xQQ2TMA3e4sBM8AZt0AZv8C4eqqXe4gHPoimeYIOnaEBTZLgD6h/Pvfhavro695z3 vM/7nvP7wIPlGUt677nnvuec933e5wURERERERERERERERERERERERERERERERERERERERERERER ERERERERERERERERERERERERERERERERERERERERERERERERERERERERERERERERERERERERERER ERERERERERERERERERERERERERERERERERERERERkYre8m6ARDUHdAdfzwMzg68XgA7wEngOfA18 Pvh/nw/+LiINowtAs8wDi8AS8IuDr4fRnfB9RTwHvgQ+BT4Bfgb8dPD1FxV/tog40AUgXz1gFfg2 sEyYTr6sL7ELwSfAj4EfDL4WkYTpApCPHq86/NXB31P2HPge8CfYBeEzz8aIiOSkA5wBNoAd4CDz eALcGrym4dyDiIiMeBu4DbzAv9OuK/awC9sp7EInItJay8B14Cn+nXPseAq8B5ysfBRFRDIxC1wB HuHfCacST4Crg2MjItI488C7wC7+HW6qsY89FcyXPMYiIknpYZ3aPv4dbC6xj80VLE5/uEVE/C1h nVgf/w411+gDd7G5EhGR5C1inZZ359m0uIueCEQkUTPYGL+GeuqL/cEx1noCEUnGGpbJ4t1BtiV2 sIVlIiJuemi4xzPuoWEhEYlsBstb13CPfwyHhbSyWERqdwIt4koxttHTgIjUaB2rZ+Pd2SnGxx5w /qg3T0SkjC6W0+/dwSmKxQZ+eySISIMsYsML3p2aYrp4ghaQiUgF59CQT86xD1x+410VEZmgg21i 4t2BKcLETZQlJCIFdIA7+HdairBxB60gFpEJusB9/DsrRT1xH+05ICJjzAMP8O+kFPXGY7TfgIiM mMc6Bu/OSREnnmHlukWk5ZawDsG7U1LEjT3gbURa6C3vBiTiBLCJhgTa6kvgbwKfeDdEJCZdAKzT 30adf9s9xy4Cnzm3QySan/NugLMusIU6f7Fz4B46F6RF2nwB6GAfeE0CytAStq+D6gdJK7T5AvAB mvyTN60AH6IVwyKNdQP/7BNF2nEHXQSk4f6cdwMcXAb+rXcjJHl/FXtC3vJuiIiEsQr08b+7VOQT a4g0VJvSQOewdM8F74ZIVr4AfhX43LshIqG1aRJ4A3X+Mr05LGFA8wHSOG2ZA7gM/DPvRki2/jLw 54E/9m6ISEhtGAJaBh6iOzip7u8B3/NuhEgoTb8AdLFx/0XvhkgjaD5AGqXpcwC3UOcv4cwB73s3 QiSUJs8BrAH/3rsR0jg94GfA/3Juh0hlTR0CmgEeobt/qcdz4JexMtIi2WrqE8AV4Kx3I6SxuthN xh95N0SkiiY+AfSwbR1nnNshzfY1NiH8U++GiJTVxEng91DnL/XrALe9GyFSRdOGgNaAf+fdCGmN BeDPgP/p3RCRMpo0BKSJX/HwBfBNNCEsGWrSENAl1PlLfHNYqRGR7DTlCWAG2EH7uYqPL4FfQE8B kpmmPAFcQJ2/+JnFzkGRrDThCaCDpX1q+Ec8PceeAl56N0SkqCY8AZxDnb/4m0dPAZKZJjwBbGMl n0W8fYqViPjauyEiReT+BHAGdf6SjkXgvHcjRIrK/QngPvC2dyNERvwEKxEhkrycnwBWUOcv6VkG Tnk3QqSInC8A/8C7ASJH0LkpWch1CKgDPEW5/5KmL4C/6N0IkePk+gSwijp/Ce9z4DOq5/LPYWXJ RZLW8W5ASb/p3QDJ0lfAJ8DHwP/GOvthfHXo33axLLPfApZK/K7e4OeKJCvHC8AM9sEUmeQllpHz I+DHWKf/6RTf/xXwu4Of8ajE7++V+B6RqHK8AJzB7s5ERn0N/BD4E+AHg69DLMgq+xlRSQhJXo4X AGVYyNAnwEfAH2Md/uFhnBD+ecnvex60FSJCF9gHDhStjD3gLnCROEMs5yu0tcy8gYhMsIZ/J6SI GzvATWxxVcy9ns8C/ZJtfhGxnSKl5TYE9He9GyBR/AT4H8B3sWGe2M4CH1D+8/H9gG0RkYFt/O9I FfXENnAV/9Le71D+zn8Ya9FbLdJwc/h3UoqwkUqnDza/dJfqr+lJ7IaLtME5/DssRZgO8l3SmiRd wdoV4vWpHLRIDW7h33kpysUO1umntndDB7hG9SGfYTyI2nqRFgl1h6aIE7vAbdIt2b1M2DmlXdJ6 qhE5Vi5ZQD3SGCeWyb4Gvgf8DrZAK8XVsF3g3wCXCXf+fw38Bj4ZS+PMYa+zO/h61FdYtdLDX0sL 5XIBOOHdAJnoY+D3sNo5KXcop7E1Bb3AP/c7xEv9XMA+D4vALw3+HD55zFN+rcSXWPG6Twd//mzk 79PUUBIJ7h38hzQUr8dT4Dp5DHv0CJPhMy5u1dTmGazs+VVsTcI2thLa6/1+AnwIXMEmzXO5eZQG 0ARwGrEPbJDPlocz2ORzXeVDNgjXEXawjvUasFVjm0PFHnAPXRAkgvv4n/BtjkfAJWD2uDcqIWex 7KO6jsn1AG1cxDrQe/je3YeI4QXhMtqsSQJ7gf8J3rYY3u2vFHh/UnISu4Ou67j0sU6urLnB9z+o sY3e0Qc2gXVUul0qmsX/hG5TPMY6qJzu9sHuOjeo99jsY08W05rBFjJ+SLg1B7nEPnAH28cjZjE/ aYgV/E/ipsc+NtG4WuwtScosNm5e95j5Y6ZfyLaMrYXIfXgnVAzXhqS2IFASto7/idvUeIxlWB3O Fc/BDJYhs0v9x+k20w1lrGJDIN7vb8pxjzxvOCSya/ifrE2KPvZIvlr8LUjKDDZE9Yz6j9Uu0w35 nAEeRmhXk2KLfLLKxMFN/E/SJsQLLHNlYbrDn4wO9jQYqyTIJsUWjA3b9ShSu5oa29gFVOQ1G/if nDnHNnCBfCfgYnf8Lyhe0fNcxHa1JbaxFdsigA1XeJ+UuUUfm9RNtRBbEbE7/gNsrL9I9tMSGuOv O+6h+l9CvTndTYtn2MrXnBfieHT8jyh2sZwFbtC+VE6v2Mcm+nN9epUAmrxgJlQ8xIYtcv6geHT8 uxSvCnqeOBPPijfjCdpms7V28D8BU4w+VuAst5W6h3l0/AfA+xR7UlpCpUhSibuEr+QqidvB/8RL Kfax4ni5j492sbvvp8Q9flsUnxu5iBZxpRZ72A2DtIT3CZdK7GJpnDmP74O1/13iLOAajYcUX/sw i02ie7/niqNjA9UZagXvE807npFnbZ7DFrEsm9hljqfNL19BT525xCO0WVTjxb5TTCUeY4+6OU/s gnWodW3GMinKLCy6gjJ8cgsNCTXcDv4nWcx4QDNWRJ7BZ/L0CdNX7JxHef25xwYaEmqkHfxPrhhx l3zr8wzNYKuOHxP/+D3B7gSn3ZlqifacY02PR+SfHCGHbON/YtUZd8m/PO5wYtcjT75sxw+WDaTN hpoVz9C8QKNs4X9S1RFN6PhXsGwZj3HzZ1iaZtm9aM+iFM+mxh55l0GREVv4n1Ah4w55d/wdrAia V9njYVZUlcnxS2iyt+mxR7nd2yQxTSkGl/sd/zxWl8WrHEKIjh+slo/3uaCIE31sTkoytoH/iVQl cu/4l7GyCbHz94exi20KVDXDo4MWd7U13kGylesd2xZwsobjEUMHe3z2rIEz7PhDLYC77fhaFP7x HpKli/ifPNPEA/JN5+xh5SY8q16G7vjBPvze54XCPy4j2TmF/4lTJHLd0m54t38P3+P3FFuJG7rk xWXn16VIKzQxnJkF/E+aSfGMPJei9/C/2z/AnpjOUT6dc5ILzq9NkV70UYpodrwmICfFHjZUkVOt nlTu9vtYdledexmcRameivGxh60Al0w8wv+kGUYfm1DMqSxzjzTu9nexSf2FWl+t3eGp81dMiqfk 9RluNY9qkuPiAflk9qRyt3+AlWu4RJynpUW0wldRLB6hAnJZ8E4FfUE+C0pWgJukUeNmEzhd78t9 zQzNrx2lCBt3keR5poLeJP3NWBawVbqx99UdF/vYEJlHQa5bJdqrUCg9NHHLxD8pHpP2hutd7Klk C/8P0AE2v3AVv3HVcwXaqFCMi33yXq3fCrF2ButjHVkdaYlVdYA1rKRBKplR28B5fLOhNO6vqBqP 0XxA0mJMBG+T5p3A29hqVu8snmH0SWcDG437K0LFBpKsOld09rGJ5pRy+oed/lP8PxjD2B20KaVd lzTurwgZ55Ak1TUP8AIbVklBip3+AZYud4n0JsPP4H9sFM2KPdK6wZERoecBHlL/oqTjpNrp72Nl oFOdCJ9Be/kq6on7SJJCzgPcwW+iN9VO/wCbDHsHmKvt1YfxLv7HStHcOI8kJ9Q8wE3idv4z2DDT bdLs9PexzKLVml5/aEuo1IOi3nhGekOerbdE9Tf2g0htXcCqhN4h3RTFHawEc+p3+4dt4n/sFM2P G0hyqqT81Vn7o4vd5b+HDaN4n7xHxfBuP5WJ72lpwZciVvRR1dDkXKH8Gxpyw5YZbMjkGrYaN5WF WUfFfWzlcM6LXbqkOYSmaG5sIkmpskFMr8LvncXumt8ljw7/AKsNdLXi606Jd1FARTujsWsD3vJu QEn3Kberz3eBfwp8ccy/W8Qe/ZaAb2GFzTyKm5XxBfY6fw/4oXNbQprH5ixSWqwn7fA58E3gpXdD Qsv1AnABy6gp42vgY+xN/QrLBlrAOpYF/NcFlPE18BHW6X9EA09UbG5FVRvFy3eA/+TdiNByvQDM YWlaKRZsi+Vr4AfA7wN/wPFPNTmbxd5v3f2Ll0+BX8Y+d5KAVHYJixl9bFLqAvmlblZxDf9jr1Bo cVhCzuN/QsSItnb6Q13ilQJXKCbFNpKMGdIpjxw62t7pj6qzCqxCMW2ETCWXii7gf0KECnX6b2ry RV6RZ6hQXEI6pL3q9rjYw1blnkd1R8Zp0gVe0ZxYRZKxTB6LsoaxgxWjO0W7s5iK0E5fihTjLg2R axroYVXWBcTwI+APsRz9nzi3JReL2EpmkdS8BL5Bs1Ovs3OedEoE7wEfYhem+TpfdINdxf99VCiO igtIctbwKRbWx+oDXcPGBzW0U10b13ko8oktGqApQ0CjuljBtjorX77EhnV+CPzp4M+vavpdbbWN ze9M6z9gq6M/Bb4c+e9drCje4uDPvwacxOo9aYWxlPENrKSMJGgGy9l9n2obsuxhewdvYFslrqA7 /BjKPMndKvF7OtiF5iI2j/SoxO9VtDOukLkmPgGMM4Nl3cxjxd7+EpZrP0y9fAk8x+7i/y925/gJ 8FN0hfeyw/RlrP8zVu21qi5Wbfbb2JDeSXTRlzf9BPhV70ZU0ZYLgOSnzAXgJfAL2MU8pFnsQvC3 sXmmxcA/X/L117EbRREJqOwk8Bb1360vApeAe+S1BkURPt5FRIKrsvXnHeIN2Qznmm4DLyq0WZFn PEBEgjtJtQ/mPeLvf9zB5g7ewxaxeXdOivqjT977bIujDnAWuI6NLetEel3VjJyH+O6HvIwNEehi 0OxYQ2QKM9gY8uGOoY/lv7+HDSu0vUDcJap/OF9gGWDehhcDpZk2L64jUtA5LMOl6Mm1DdzAhkTa JlS11z7W+aaSyrmIlbpQsbtmhOYB5FgnsAyVKifaQ2zBUpuGik4R9oO6FLf5x9LFIP/QPIBMdJGw 6YJ72KrXlZgvYsQCNkQV6476OmGP3aVI7Z7WEvak4lHPSlEtNA8gb+hiG77UeeI9wjq02PVsnmLj 6+9RrmbPNDpYddWQx22L9J4GRp3Cyo9UKWOiiBeaB5DXLBM3++MJNr8Qy7uHfv82tn9vXdtZdgk/ gbqP1XdKZW5gnBms1Pk90il3rngz7h31Bkr7rON35/aQOFvWLR7x+/vYQqzThO9Ye9SzR/A2lr+f ugXsgqX5gvTi6YT3TVqigz22e5+MB9iQSd1DHPePacMzLIPpRMDfeYL6Nop/n3w28FnGjm1dx0Ix fWgiuMU62J2v90k4Gn2sREFdwzLTbNr+EJurCNGWBcKkh46LXdIfFho1XEx4D//zre3RxlRtwa78 KX8An1FPlkKX6bOb9rGJ8TWqdbJzHP8EUiWeYB1rTnrYZKSeCnxi/bg3SJqnS70dUci4Tvg72ypZ Tk8HbSo77NKl/q0j7+OXbltWB5uD+RBNHMf+fEmL5NT5DyN0fZy1AG2q+sG5Qv0d3fvkuQ/AArZX tdYW1B93i70l0gQ5dv7D2CNcymiH6p3LU6o/mZyk/rTbPrbuoa45lTp1sIv1HfRUUFc8LvxuSNZy 7vxH4zZhMhdCrNQNMUfRxe7U6z5uu9hdda6byc9jT016Kggf0gKpZfsUiT6wiWXinMZSREN1YEsB 2vdBoLaAPd3E2JzlGbb4LdcLwTCDqAk3M6lErueCFHQD/5NsmtjE0jXrHrZ4ULGd+4Qtfz1HvDUZ uV8IwNYV3EZbXFaN3pTHXTJyEf8TrGjcpf4aPaNCHJuLNbRrjenKb1eJJlwI5tDwUJXoTX3EJQun yWPyLHbHPzRL9bvH+zW1rYtN3sZ6/5pwIdDwULnILWVYClgm/aqMO/jvfBWi8mmdqZYniNuhNeFC ABoemiZWyx1iSdUsae/p2seycFLoZEKsCXg3QjvXiTNJPIymXAiGw0NaaXx0aF+Ahql7pWmV2MZn uOcoodYExDCLDQvFvKvdxS5wuRScO8oMdhGtqx5TzrFe+qhKct7B/4Q6Km6R5h1liDUBMYey5ol/ IdjH3r8cVxYfdobqW502KdYrHU1JxtukOekbchVvHUKsCXg/eqt9LgQH2BNmEyYOV0j7aTlWrFc8 jpKAedJMg9smj7vGHrZSdodyr3Mfv9rqPWz9QOyL/xZ2N527Rezppq0TxuuVj6C4C73/bIj4kDw3 nFjF7uin7RAuOLR11CI+F4LHWCeS4vDeNOax+Y5d/D87MWM9wLETR9NschIr6ijjHFsXO7ZF0zDr WhMwreGFIPZ7/gybgwq5OtpDF8uAakvmkHcqtlTQI618/z7+d8J1WMTuDo8bZktpuGsZnzHuPeAm 9W/vWbcZ2nEhWA10vCSyDmmtetyjHSfTGraAbNwQUYw1AdPyuhAcYLvOna7/Jdaq6ReC1WBHSqJK KeVzD8tCapNZrBbQaFG5WGsCyljGbxvQJ1gnmvPwUFMvBL2Ax0gi6ZFO1sIzmpEWWMUSNu/xlPTH VFfxy4Mfric4UfeLrFHTLgS9oEdHotjE/8QZdv65j/WG1CGfVbOr+C6I2sTSSHNNFmjKhaAX+LhI zc7jf9Ko82+OVWzfZa/zaIe8s4dmsDUkOaaP9sMfDqlbCncc6vyb5wy2cM/rnNrH0ldzHU70qNVU NbQncIZSOGnU+TfXGv4LCx9jTwU5bmbfw2dBXpn4sJ5DIHXy/mDmMsYt1SzhXyJhH0u5Xa33pdbi BH5ZV0XjvdpevdRiDt8T5l3sw6iLQHvMksaWi48H7cjt3DsFPMK/sx8Xl2p83VKDHv4nzTB2sRz4 29jj+mk0NNRkHayqq+eE8QE2tHKHvDYy6WAr5FOYvxuNnI6hkNYF4KjYx+547mDZEWfI765NJlvB 3l/vce4d7Klgod6XG8xwotj7uA0jpdIlUkAP/5OmbDzFOo3L2Krh3KtHinW8N0gjBXITq2yZQwXa 2Hs9jwulgGaoh/8HLeQJ+BArHHYe3Y3krIuNJ6ewF/U+Vs57jfQXma3jd/FUCmiGevh/wOqMXSw1 7Qr55oO33WnSWan+FHtCSWkf6sPmsEyn2MfmgxgvTsLq4f+hin1B+ACbQOtVPnoS0zKWIJDKwqht LFkh1fmo08TNtLoY52VJSB38P0ie8RhLRU35jk5eNw9cJZ0MmD6Wn3+e9OYLZrHhqxjHQRl7marz g3QLOwmXgbPYHdNNbFjmEenczR1g4826GORjBhvz9iw3cTj2sb0SUrsYnAVeUN/r3o33UiS00frz IWOTYpNm89j4/DlsrP4OdmfufTG4Rj7pgG33Nja0l0o65MGgLZvYcGMKJSgWqO+zfjfi65DA7hD+ hHhM9TugLvbBvozVQtkm/ge8jz2tnCb9DBCxm4krWD6/9wUgxYtBB3sqD/36Lsd8ERLWDcKeDC+o LwVzBjiJTTjdJO7j/1PsqSDVST95pYNdtD8kraeCwxcDryfMS4Q9Lho2zdhlwp7cq1Fbb3MMZ7AV kTEuCPuD36ULQR4WsN3VUpk0PhwPsEnt2LuanSXMRWAPPR1n7QzhTub1uE0fK9YFYR9LS9SCszx0 sE5vC/9O/6h4gj3ZrhFnZfu5AG2+F6GdUqOThDl5r8dueEHDC8JN6smL7qNH4NwsYUOfdWbGVI19 rHO9RL03GdcrtnO9xrZJJFWXj98jn8fAFSzdM2SZAWVB5KmD3RzcIa2U5HGxgyVDrBN2+HGW8p// fdJKd5WSqmQCPSbf/VeXsYndEENFscdwJaw57G7buzz1NJ+7jUGbl6l2A7ZVsg3vV/idkpCLlDsB 9mjOCsBFbDKubFXFG/GbLDVZwoZGvDetmSb2eVUM8QJ2UShyd34K+xyX+Z2nC/z8pL3l3YBELGJD ItP6deCjwG3xNo99iM5O+X2fA98I3xxx1ME6yH+EnQ85lhx/DnwGfAp8PfLf57CLRNlU1C+Anz/0 MyVjO0x39b/m0sr6zGOZQ1XGgjUe2lxd7M56k/TWFniE9v9tmA2Kv/k5TfoeZ4HqHf8wNA/QDnPY sKn3Jiye0Yjy6hoCeuUcxWt6f4x9CDpMfoT8HHtE/Ap7ZAR7HH0J/IxXj6afAV9O2d6qFoHfwgp3 hbqYNXFITCZbwIaH/j5WuqQNPgW+6d0ICWse3zuKXWwS6w42AXeWevKf57B6KHU8xl+qob2SjwVs ZX0umURlQ7V/Guoe/ifXuAvDJpZlU+Wi0ME66Dq3zLtWsm0SVgqTtcOsspTKVYeIZ6RxfKUGp/E/ wYpeFO5h+wsUSUM9RZwS09cKtEXq18OeJC+QxsR8D7v5aMIEsp5yG6xDXrnPw9jB6vKc5fUP/CJW ETJWO65NcaylXitYfvtwU/dV19a80sXm294n7VIU40J1f1rgCv4nWpXoY9kZG8Rf3n9t+sMtNTrD 63fcO9h71PNr0ms62MTxDcKWJqkjnpLGxjZSs3nSr4uSalwocbxjG9bKv8P0i91y9A7j36strK5O CkNEQ4tYe7dIa6joMap62yof4H/S5RjrJY51LCewO81hXfw92jOZd5Oj37M97Glx1atxRxitYuu5 ReoWDd77QusAxnsbG0Y57FPgk0H8PyzH//PB/3uO5fcPzWF3VwvAX8BOotlBLGCdT9P23P014Afe jRgxh403/yZW9nvUfwX+SfQW+ehg49enjvl3nwK/A/w3Xp3XqZjHLlLfxj6fdS86/BL4V9h5Ii30 HpbGdharGVLX3eIslslzFrtD3aTeVM06I4Ux0tEhnklDeW1ZtDQ0z3S7gm2S9rDHLPY+X8faGmLH sz1scvoMLXk61BNAuhaxC8+vDP5cIY0O9ijPseJYXpaxomXnOf6Rva0rOU8xXRmT7wN/p77mBDe8 mVoGfgn7vAyftuexJ/I57Fz9YhCfDf7+Y+B7vP4UL5KUBezuZBP/u/3D4ZEiN4etypx2sdFVh7am 4hrTHatzLq0UkTfMY4+o3p39uIhVHXG4i9VdymeKNG3uZRodpruBeEpamUIirdPB7nRTnhuIsTnG AtUXD21GaGfqpp0PKLLf9Tp2DrRi7FwklgXSL7sba2/UEIv0zkdoZw7OUPyY9Tk+6+bdwb/dw57O 1kl7zkokeWvksVx+q64DcEjVfPA25f4XcZfix25cWvSos2O+Z7gq/R3SzigSSc7wjiqHuFLTMRi1 EqCdtyO0Myc9ptsPd9LT02KB739MnHNFJGvv4d+pTxMxdgK7FaCd3rn/K9jQy6xzO0ZNM6z2hMkp pEXmqJ7V8SJEmiK3zv9JPYfhNTNUnwCP0c6jLPBm5s0DbHJ1Dd8smw7wiOLHcX3CzyqaXSQiY+TW +R9gQ1V1OxegndcitHOcIvM4feyCcA0rdxB7nuLtY9p3+EJ61FPARsGf0avnZYjkK8fO/wBbdVm3 EHsa9CK087CzlFursI9NrF/Fho1C7dk8SdHO+4CjnwKK/gzvoTiRpOTa+T+s42AcMk/10sBbEdp5 2OFa/FViD1tpfYU3i9qFskjxMuhHPQUUvQC0oQy3SCG5dv4HxCn/fFQ9+9TaOapHvYv2drEUzsuE fQKb5lxcH/P9RTPXxn2vSOtcxL8TLxsviDNWPc0E5bjYI+4ka4f4C/f2sKexm9ietScp95qn2Qxp 3FPAtYLfu16ibSKNcoLpcrBTiT5WajnG2P/JAO3diNDOUdcCtDlUPMLeq3ewMg1FVuZOs/7kKnYe 9LDU1qKvXauxpdW6VL+zjR372B1mzBWdk3ayKhIPiHOhGlokra0Mx8ULbFL9BjYWf3gNxyz115xa ne6wijRLiEVNsaI/aG/sui4zlCuD8RTLr1+K3F6YLpMmpTg8hHSn5t+3WvL4imQvRE57rNgizirf ccbVljkq9rF9nNeIkzI5Tg53/6mEx8VZxF2PPMb9n+G/EUiR3P/7wAXSqFe/gf/7lkuoSqi0Tgd7 zPb+8B0XWxy/pWLdJuX+P8UmKlOqLjmH7v6LxnbJYyyStcv4f/iOi+v4DaGMOpz7v4/thHbKs1ET 5PDephIxSoeIJGWOtHfz2sXGz1MxzJBKaYhnkmn3JG5zrJY7xGOlfl6IAFaH3vuDd1Q8JK3iXAuk N8QzSZE6+AqLfcIuHvwQzSdI4pZJd3z4FmkM+eQsxDaVbYm7JY/xODODn7mJzmFJWKr7+V6u80W3 SKrvb4pxoeQxHmd0lfiNgD9XJJhUc/7V+YfRxf+9zCX6hB2uuXDo56u9BxGWAAAJN0lEQVTCqCRl BktZ9P7gqfOvzxr+72cusVnyGB/lcOXSPfwWLWbr57wb0GDr2IRmSv4F8NvejWiQv+XdgIz8fuCf d7jGUxebY0hpv2VpqQ5WLtf7rkt3/vUqugdu2yP08A8cnVZ9L/DvEZnaGfw/dOr861emWF0bI/Tw z8Ixv+9a4N8nMpWUSj5crfm1ttUc/u9tLhEy+wdsb4PjfufpwL9TpJBV/D9ww7hT70tttRX8398c oo7hnyJrL/ZQ1dFjaRI4vH/p3YCBnwL/2LsRDabOpZjvAV8E/pnfKvBvutgNkMpFTKALQFhLpPHo +RXwG4M/pR497wZk4r/U8DOLXnxPEH9LUGmxG/g/ch9gk9BSr5x2dfOKHcKXaRiWgJgmNA8mtSu7 hWHoULndOO7h/16nHldKH92jjZaAKBp90qp2Kw2UQuqnCmPFk1KmV4rRp56NhQ6XgCgaL9CwndSo 7o20j4s9dILHtIINcXh3tKnGRvlDO9HhEhDTxDaaFJYadLFa554fuHdqf5Vy2Cy2Gb13Z5ta9Klv P4etim1TvSAJ7jy+H7gHaOjH0wXsCazq+/iUdPeOmCY2qh3OiarsrLdfY7ukxe7i92Hr82ZhLIlv kepbQ25ii6bmscnOM1gZj1vYnW8KSQZFzse67v6PKwFxXGhDegluhjB3f2VDWT/p6FBtjPoAm1eY dEGfBU7xat/k1GJjymM2jSIlILzaJi11Cr8P2xPC7rEqYawBzyj/vu5j5cQn6WIdWpXzZxu7YIWq XLtPvYkIK1QbIlNRRAluDriIPb7Hngg+F+H1STnzVF8rcJPj53bWqfYEuoPVr1rEFkxV2eIyxoKr dyq071SE9kmLdbFO+X3qHxZ6GOk1STXvUO2u9T7H59OfAB5X+B3Di80wRXIBm9ieZr+DmGtQ3p+i XaMRuiidyJE62B3HTerZGnI12iuRqpapNszyDBv+mKRL9ZTUHd48rxawFb2T5hweE7dz7TL9hPuL iO0TecMytlFF1UyRAywjRPJSdcy+D1wq8HsuUn0ocvRpYNQyNmcwOr/xiHpW/B6nx3RZUdopTJKx gH2YNyk3POBZ7E3rDao5R7Vc9g2On/iv+sRxgD21HjXH1MEmui/gez6covjn54ZTG0Um6mILyT6g 2LyBdy7ze86/vwl62OK9sp3zQ46/657F7uSrXAQOsJuUlPc+KDopfN6rgSJFzWB3Nbc4et7grFvr 7HcfUN9CnzbpANcp3zHvUKxjXqV6zaL+oK2p1tEpMimsxZKSnZPYQq/hvMEOfo/cHV4NK2jxWTjn KT9mvwu8XeB3dAnzNDBpWMhTl8mT1H20XkYy18MuCF4u8frdp4SzQvmFY32KPxWuEqaCaYobrCxy 9NzKI8d2iWRvljc7qCJ3nlJcj2rlHYpWgw3xNPBhhddZpzXGTwp/4Nkokdxd480P1W3PBjVUF+tc y3bMRVYOD61S/mkg1QsA2NNJ2YujiBwyz/gx6l00rlqHDtX2lr5LscnaE5Tf1/hW5VdZr8ObM532 bY5Ivm5zdEfgmZHUdBcoX0LiqPIRXax2UJUU1APST6k8PCm84NsckTwtMbkTuuvXtFZYpfweAI95 lSZ6ErtrD1Gfqk8eNXWGk8K73g0RydVxG93k0hnkbInyhd6eEX7fgPv1vtyg1rCFbCIypVWKdQhF 6tPEluqCpbJmma4yZ52RYgroJCmvYhZJVtFx4gdeDZzgDFYu4RLWeTZBh/KTtqGij0/hNxGJaFjy oWikVhpilldzF/tYHnhTNgO5jN/G8RsRXp+IOBot+VA0UiwNMe4JZgdrq+eK6hDW8NmHWvV0RBpu tORD0dhxaelk7zK5zc+wFNez5DlnsESYsg5FQ/X0RRpuXMmHopFaaYhVird9H5tkvYw9HaS+wG0O m+eYtEYjdKzGeGEi4uca5TuI1EpDzFB+mKSPTSLfxBZkLeNXhbWLXVwvYytcY971D2Or9lcpLt7y boAkYx7rXMre/X4J/DzwMliLqruHjZeH8BL4BPgc+Az4PyNffz6IsuaxifTe4M9fHPk6haybvwF8 7N0ICU/b+8nQCtWGPmaxmivfDdOcIP6IcBeAGexJYNJE6Ne8uhCMfj1qfvCzZkijcz/Of0edv0jj zVBtr9oDbMgkJSeIP1zSpOiTXoqviNSkyqRiqp1F2UlthTZSF2mVtynfWaRaIvhwaWBFsXhGc1ZR i0hBO0zfWeyR7nj2Ffw70xwjxb1/JbCf826AJOd3S3zPfwSeh25IIJ94NyBD38cmf0WkZRaZfqgg 5ZW0S/jfTecU+6Q5lyMikUyzY9RFpzYW1cGveFqOof1zRVquaD2gJ+SxliT0pihNjQfk8X6KSI3m KHbXfMargVNSJtDxsYc2T2kdTQLLOF8AHx3zb34I/EGEtoTwqXcDMvCv0YS5iAwctylMatU/JzmH /x12yrFV/tCKSBNNKg1x17FdZSzj38mmGntY4TkRkdeMKw2RasmHSbr4d7SphhZ8ichY40pDpFry 4TjeHW2Kket7KSKR7PCqw0i55MNxnuLf4aYUd1DKZ+spC0iOM1oaIuWSD8dJaaMab78N/ENszwIR kSMNS0OkXvLhOFv433V7Rx9b5CciUtgD0i/5cJy2XwBeEG53NBFpkdPkP17c5gvAfWCh+iEUEclT Gy8Ae1hxt9wv3lITnRgizfQR8B3gM+d2SMKUBSTSLD8Bfg34ddT5i4gA5ba6zCmeAOeDHS0RkQbZ w7+TriO2scJ9Gs4VERljFv+OOmT0gXvksx+DiIibFfw77RCxA1xFKZ0SiB4bpQ2WvRtQwSfYxjt/ iG3CIxLMW94NEIlgDqtsugz8CnCSdO+ivwR+hHX4H6FMHqmRLgDSVrPYheAE8C3s4rAw+O+xfIWl bX4M/Onga21fKdHoAiDyui52IVjAdspaAP7K4M/O4P/Pjfz7OV4VyXvJq2qpXw6CwX/7DPizwZ+f D/4c/n8RERERERERERERERERERERERERERERERERERERERERERERERERERERERERERERERERERER ERERERERERERERERERERERERERERERERERERERERERERERERERERERERERERERERERERERERERER EREREREREREREZHs/X+wJ6vkID+1SwAAAABJRU5ErkJggg== "
       id="image3791"
       x="58.334595"
       y="226.87271" /><image
       width="12.720236"
       height="12.720236"
       preserveAspectRatio="none"
       xlink:href="data:image/png;base64,iVBORw0KGgoAAAANSUhEUgAAAYAAAAGACAYAAACkx7W/AAAABHNCSVQICAgIfAhkiAAACgVJREFU eJzt3TGrHNcdxuHXRoUKlyr0AVSoUKlShZp0chFQE5CLdGoCatyp0weIO6VXwIUNKZzOhQwKuHDA hQ022L0CTqeADTdwU6wS21nZurra2Tln3ueBRaXOzh+dH6OZnUkAAAAAAAAAAAAAAAAAAAAAAAAA AAAAAAAAAAAAAAAAAAAAAAAAAAAAAAAAAAAAAGB8b6y9gAGdrr0ANuW9JO8m+ffaC4H/JwD7BIBD +zDJO0l+WHsh8FMCsE8AWMLfkvw2yT/XXgj8lwDsEwCW8nWSt5N8u/ZCIEneXHsBUORqkidJrq+9 EEgEAI7tcpLHSW6tvRAQADi+t5L8JcndtRdCNwGAdVxI8jDJg7UXQi8Xgfe5CMyx/TnJ7+O3AhyZ AOwTANbwSXZ3CP1r5XVQRAD2CQBr+TLJb5L8Y+2F0ME1ABjHtSSfP/8TFicAMJbLST5NcnPldVBA AGA8byX5OMmdtRfCtgkAjOlCkkdJ7q+9ELbLReB9LgIzmj8l+UPcJsqBCcA+AWBEf03yu7hNlAMS gH0CwKj+nt1vBdwmykG4BgDzuJ7d00Svrr0QtkEAYC5XsovAjbUXwvwEAOZzKbvbRG+vvRDmJgAw p4tJ3k9yb+2FMC8Xgfe5CMxs3kvybtwmyisSgH0CwIw+TPJOkh/WXgjM7HThD2NZet7H/DzJ7voA cE4C0GXtTfvQn6+yu1MIXspFYNiWq9mdCVxfeyGMTwBgey4neZzk1toLgdn4L6Aua/+XzZKfkyR3 D3eoYPsEoMvam/QxPg8OdrRg4wSgy9qb87E+j7J7xwD8j98B7Ft6k3bMx9IU5U+ye5qoR0qTxGb0 IgLQpSkASfJlkt/EI6WJu4CgzbUknz//k3ICAMt6b+0FvMDlJJ8mubnyOmA4LgJ3Oca8/3iEv+c8 n5Mkd17z+MGmCECXY8171AicJrn/GscPNkUAuhxz3iNH4GHcJgoCUObY8x45Ah8leevVDyFshwB0 WWPeI0fgs+wuEkMlAeiy1rxHjsA32T1VFOoIQJc15z1yBL5LcuNshxC2QwC6rD3vkSPwfZLbZ/gO sBlrbwgc1wjzHjkCJ0nunfF7wPRG2BA4nlHmPXIETp+vz22ibN4oGwLHMdK8R4/AB0kuvuJ3gqmM tCGwvNHmPXoEniS5dI7vBVMYbUNgWSPOe/QIfJXkyjm/GwxtxA2B5Yw679Ej8DTJ9df4fjCkUTcE ljHyvEePwLMkt17zO8JQRt4QOLzR5z16BE6S3D3A94QhjL4hcFgzzHv0CJwmeXCg7wqrmmFD4HBm mfcMEXgUvxVgcrNsCBzGTPOeIQKP45HSTGymDYHXN9u8Z4jAF/FIaSY124bA65lx3jNE4GmSawt9 f1jMjBsC5zfrvGeIwLMkNxf6/rCIWTcEzmfmec8QgZMkd5Y6AHBoM28IvLrZ5z1DBE6T3F/qAMAh zb4h8Gq2MO9ZIvAwbhNlcFvYEDi7rcx7lgh8FLeJMrCtbAiczZbmPUsEPovbRBnUljYEXm5r854l At8kubrQMYBz29qGwK/b4rxnicB3SW4sdAzgXLa4IfDLtjrvWSLwfZLbCx0DeGVb3RB4sS3Pe5YI nCS5t9AxgFey5Q2BfVuf9ywROH2+VreJsqqtbwj8XMO8Z4rAB0kuLnMY4OUaNgR+1DLvmSLwJMml ZQ4D/LqWDYGdpnnPFIGvklxZ5jDAL2vaEOib90wReJrk+jKHAV6sbUNo1zjvmSLwLMmtZQ4D7Gvc EJq1znumCJwkubvMYYCfa90QWjXPe6YInCZ5sMxhgB81bwiN2uc9WwQexW8FWFD7htDGvOeLwON4 pDQLsSF0Me+d2SLwRTxSmgXYELqY949mi8DTJNcWORLUsiF0Me+fmy0Cz5LcXOJA0MmG0MW8980W gZMkdxY5EtSxIXQx7xebLQKnSe4vciSoYkPoYt6/bMYIPIzbRHkNNoQu5v3rZozAR3GbKOdkQ+hi 3i83YwQ+i9tEX+qNtRcwoKX/0TrmY9nKJs2+b5O8neTrtRcyqjfXXgDAQq5k93KZG2svZFQCAGzZ pSQfJ7m99kJGJADA1l1M8n6Se2svZDT+P3qfawBdXAPo4t/fTzgDACglAAClBACglAAAlBIAgFIC AFBKAABKCQBAKQEAKCUAAKUEAKCUAACUEgCAUgIAUEoAAEoJAEApAQAoJQAApQQAoNSFtRcAK/OO 2LF4R/MROQMAKCUAAKUEAKCUAACUEgCAUgIAUEoAAEr5HcD2bO0+avfpw0KcAQCUEgCAUgIAUEoA AEoJAEApAQAoJQAApQQAoJQAAJQSAIBSAgBQSgAASgkAQCkBACglAAClvA9gezw/HzgTZwAApQQA oJQAAJQSAIBSAgBQSgAASgkAQCkBACglAAClBACglAAAlBIAgFICAFBKAABKCQBAKe8D2J7TtRfA pnnfxIY4AwAoJQAApQQAoJQAAJQSAIBSAgBQSgAASgkAQCkBACglAAClBACglAAAlBIAgFICAFBK AABKeR/A9nheO3AmzgAASgkAQCkBACglAAClBACglAAAlBIAgFICAFBKAABKCQBAKQEAKCUAAKUE AKCUAACUEgCAUt4HsD2nay+ATfO+iQ1xBgBQSgAASgkAQCkBACglAAClBACglAAAlBIAgFICAFBK AABKCQBAKQEAKCUAAKUEAKCUAACU8j6A7fG8duBMnAEAlBIAgFICAFBKAABKCQBAKQEAKCUAAKUE AKCUAACUEgCAUgIAUEoAAEoJAEApAQAoJQAApbwPYHtO114Am+Z9ExviDACglAAAlBIAgFICAFBK AABKCQBAKQEAKCUAAKUEAKCUAACUEgCAUgIAUEoAAEoJAEApAQAo5X0A2+N57cCZOAMAKCUAAKUE AKCUAACUEgCAUgIAUEoAAEoJAEApAQAoJQAApQQAoJQAAJQSAIBSAgBQSgAASnkfwPacrr0ANs37 JjbEGQBAKQEAKCUAAKUEAKCUAACUEgCAUgIAUEoAAEoJAEApAQAoJQAApQQAoJQAAJQSAIBSAgBQ yvsAtsfz2oEzcQYAUEoAAEoJAEApAQAoJQAApQQAoJQAAJQSAIBSAgBQSgAASgkAQCkBACglAACl BACglAAAlBIAgFICAFBKAABKCQBAKQEAKCUAAKUEAKCUAACUEgCAUgIAUEoAAEoJAEApAQAoJQAA pQQAoJQAAJQSAIBSAgBQSgAASgkAQKkLay+g0OnaCwBInAEA1BIAgFICAFBKAABKCQBAKQEAKCUA AKUEAKCUAACUEgCAUgIAUEoAAEoJAEApAQAoJQAApQQAoJQAAJQSAIBSAgBQSgAASgkAQCkBACgl AAAAAAAAAAAAAAAAAAAAAAAAAAAAAAAAAAAAAAAAAAAAAAAAAAAAAAAAAAAAAAAAAMCw/gO7+w9w PbAyWQAAAABJRU5ErkJggg== "
       id="image5303"
       x="36.943542"
       y="221.60385" /><rect
       style="fill:#ffffff;fill-opacity:0.9;stroke:#808080;stroke-width:0.76375;stroke-miterlimit:10;stroke-dasharray:none;stroke-dashoffset:0"
       id="rect5481"
       width="19.758757"
       height="5.6029305"
       x="81.185196"
       y="216.01244"
       ry="0.035352714" /><text
       xml:space="preserve"
       style="font-size:4.23333px;line-height:1.25;font-family:sans-serif;-inkscape-font-specification:'sans-serif, Normal';letter-spacing:-0.00529167px;fill:#000000;fill-opacity:1;stroke-width:0.264583"
       x="82.367905"
       y="220.27696"
       id="text5365"><tspan
         sodipodi:role="line"
         id="tspan5363"
         style="font-size:4.23333px;fill:#000000;fill-opacity:1;stroke-width:0.264583"
         x="82.367905"
         y="220.27696">Assign to</tspan></text><g
       id="g6318-1"
       transform="translate(-59.664349,15.441526)"><text
         xml:space="preserve"
         style="font-size:4.23333px;line-height:1.25;font-family:sans-serif;-inkscape-font-specification:'sans-serif, Normal';letter-spacing:-0.00529167px;stroke-width:0.264583"
         x="159.83815"
         y="181.90596"
         id="text5365-0"><tspan
           sodipodi:role="line"
           id="tspan5363-6"
           style="font-size:4.23333px;stroke-width:0.264583"
           x="159.83815"
           y="181.90596">Helpdesk</tspan></text></g><rect
       style="fill:#ffffff;fill-opacity:0.9;stroke:#808080;stroke-width:0.76375;stroke-miterlimit:10;stroke-dasharray:none;stroke-dashoffset:0"
       id="rect5481-4"
       width="14.90256"
       height="5.5230136"
       x="115.41991"
       y="225.70001"
       ry="0.035352714" /><text
       xml:space="preserve"
       style="font-size:4.23333px;line-height:1.25;font-family:sans-serif;-inkscape-font-specification:'sans-serif, Normal';letter-spacing:-0.00529167px;fill:#000000;fill-opacity:1;stroke-width:0.264583"
       x="116.12908"
       y="229.71704"
       id="text5365-3"><tspan
         sodipodi:role="line"
         id="tspan5363-7"
         style="font-size:4.23333px;fill:#000000;fill-opacity:1;stroke-width:0.264583"
         x="116.12908"
         y="229.71704">Involve</tspan></text><rect
       style="fill:#ffffff;fill-opacity:0.9;stroke:#808080;stroke-width:0.76375;stroke-miterlimit:10;stroke-dasharray:none;stroke-dashoffset:0"
       id="rect5481-47"
       width="17.681231"
       height="5.4337492"
       x="54.439011"
       y="201.98157"
       ry="0.035352714" /><text
       xml:space="preserve"
       style="font-size:4.23333px;line-height:1.25;font-family:sans-serif;-inkscape-font-specification:'sans-serif, Normal';letter-spacing:-0.00529167px;fill:#000000;fill-opacity:1;stroke-width:0.264583"
       x="55.808151"
       y="206.10623"
       id="text5365-2"><tspan
         sodipodi:role="line"
         id="tspan5363-1"
         style="font-size:4.23333px;fill:#000000;fill-opacity:1;stroke-width:0.264583"
         x="55.808151"
         y="206.10623">Fills out</tspan></text><text
       xml:space="preserve"
       style="font-size:4.23333px;line-height:1.25;font-family:sans-serif;-inkscape-font-specification:'sans-serif, Normal';letter-spacing:-0.00529167px;stroke-width:0.264583"
       x="152.82693"
       y="214.38799"
       id="text5365-3-3"><tspan
         sodipodi:role="line"
         style="font-size:4.23333px;stroke-width:0.264583"
         x="152.82693"
         y="214.38799"
         id="tspan6521">Network of Experts</tspan></text><text
       xml:space="preserve"
       style="font-size:3.52777px;line-height:1.25;font-family:sans-serif;-inkscape-font-specification:'sans-serif, Normal';letter-spacing:-0.00529167px;stroke-width:0.264583"
       x="191.61258"
       y="269.73703"
       id="text6527"><tspan
         sodipodi:role="line"
         id="tspan6525"
         style="stroke-width:0.264583"
         x="191.61258"
         y="269.73703" /></text><rect
       style="fill:#ffffff;fill-opacity:0.9;stroke:#808080;stroke-width:0.76375;stroke-miterlimit:10;stroke-dasharray:none;stroke-dashoffset:0"
       id="rect5481-47-2"
       width="17.449919"
       height="10.223798"
       x="78.209976"
       y="198.52827"
       ry="0.035352714" /><text
       xml:space="preserve"
       style="font-size:4.23333px;line-height:1.25;font-family:sans-serif;-inkscape-font-specification:'sans-serif, Normal';letter-spacing:-0.00529167px;fill:#000000;fill-opacity:1;stroke-width:0.264583"
       x="79.000458"
       y="202.50484"
       id="text5365-2-6"><tspan
         sodipodi:role="line"
         id="tspan5363-1-9"
         style="font-size:4.23333px;fill:#000000;fill-opacity:1;stroke-width:0.264583"
         x="79.000458"
         y="202.50484">Trans-</tspan><tspan
         sodipodi:role="line"
         style="font-size:4.23333px;fill:#000000;fill-opacity:1;stroke-width:0.264583"
         x="79.000458"
         y="207.79649"
         id="tspan6691">ferred to</tspan></text><path
       style="fill:none;stroke:#000000;stroke-width:0.597;stroke-linecap:butt;stroke-linejoin:miter;stroke-dasharray:0.597, 0.597;stroke-dashoffset:0;stroke-opacity:1"
       d="m 157.48401,244.57598 c -2.64973,-0.0717 -42.59732,-0.74523 -48.33877,-3.50558"
       id="path1025-7"
       sodipodi:nodetypes="cc" /><rect
       style="fill:#ffffff;fill-opacity:0.9;stroke:#808080;stroke-width:0.76375;stroke-miterlimit:10;stroke-dasharray:none;stroke-dashoffset:0"
       id="rect5481-47-3"
       width="30.450476"
       height="20.617029"
       x="118.3262"
       y="238.35313"
       ry="0.035352714" /><g
       id="g4265"
       transform="translate(32.254292,-10.617317)"
       style="fill:#000000;fill-opacity:1"><text
         xml:space="preserve"
         style="font-size:4.23333px;line-height:1.25;font-family:sans-serif;-inkscape-font-specification:'sans-serif, Normal';letter-spacing:-0.00529167px;fill:#000000;fill-opacity:1;stroke-width:0.264583"
         x="86.850464"
         y="252.79582"
         id="text5365-2-3"><tspan
           sodipodi:role="line"
           style="font-size:4.23333px;fill:#000000;fill-opacity:1;stroke-width:0.264583"
           x="86.850464"
           y="252.79582"
           id="tspan7074">Make use of </tspan><tspan
           sodipodi:role="line"
           style="font-size:4.23333px;fill:#000000;fill-opacity:1;stroke-width:0.264583"
           x="86.850464"
           y="258.08749"
           id="tspan4278">- guides, </tspan><tspan
           sodipodi:role="line"
           style="font-size:4.23333px;fill:#000000;fill-opacity:1;stroke-width:0.264583"
           x="86.850464"
           y="263.37915"
           id="tspan7076">- templates and </tspan><tspan
           sodipodi:role="line"
           style="font-size:4.23333px;fill:#000000;fill-opacity:1;stroke-width:0.264583"
           x="86.850464"
           y="268.67081"
           id="tspan4280">- handbooks</tspan></text></g><text
       xml:space="preserve"
       style="font-size:4.23333px;line-height:1.25;font-family:sans-serif;-inkscape-font-specification:'sans-serif, Normal';letter-spacing:-0.00529167px;stroke-width:0.264583"
       x="55.130611"
       y="186.99829"
       id="text5365-0-4"><tspan
         sodipodi:role="line"
         id="tspan5363-6-6"
         style="font-size:4.23333px;stroke-width:0.264583"
         x="55.130611"
         y="186.99829">Request</tspan><tspan
         sodipodi:role="line"
         style="font-size:4.23333px;stroke-width:0.264583"
         x="55.130611"
         y="192.28995"
         id="tspan6778">Form</tspan></text><image
       width="19.966801"
       height="19.966801"
       preserveAspectRatio="none"
       xlink:href="data:image/png;base64,iVBORw0KGgoAAAANSUhEUgAAAYAAAAGACAYAAACkx7W/AAAABHNCSVQICAgIfAhkiAAAIABJREFU eJzt3V+oXded2PFv2/twH/SgBz0ojAI3oIIKGqoHFVTQwx5QQQMe6pK0nmKX3KGGSaEDfvDAFPyg 4kIKKZghHVKTCcfBKQ44YIOmKKDAMWhABgUcUEAGh16DDArIoAGZyiCD+vDTzr1SdKV79tlrr7X2 +n7gBwaD7tpr77PXXv9+CyRJkiRJkiRJkiRJkiRJkiRJkiRJkiRJkiRJkiRJkiRJkiRJkiRJkiRJ kiRJkiRJkiRJkiRJkiRJkiRJkiRJkiRJkiRJkiRJkiSpUP8kdwGkhhwC/h3wl8AfAP8X+H9ZSyRJ SmYTeB54G7gHPNgT94H3Hv7/zVwFlCSNqwN+CNzm0Zf+fnEb+D5wJkNZJUlrOgW8AdzkYC/9/eIG 8FfAsWmLL0laxXHgAvAJ673094vLwEvE/IEkKbNjwCvAR6R56T8p7gIL4NwE1ydJ2uMI8DKwZLqX /n5xE3id6H1IkhLYJIZf3uP3V/CUEleB7xANlCRpDRvAc8Syzbvkf8EfNO4B7z4s+8botSJJM3aW 1ZZtlhy3idVIp0atIUmakVPA91h/2WbJcR14FZeUShLHgddIt2yz1LgPXAL+FHcdS2pIv2zzKvlf xCXEXWK46+w6lSpJpTpMLNu8THz95n7plho7xEY2l5RKqtomMcRR8rLNkuMK0Wi661hSFTaA89S3 bLPkuAe887BeXVIqqThnieyZc1i2WXLcIlZKuaRUUlaniBQIc162WXJ8REymu+tY0iT6ZZvXyf8C NCLuAxeBb+GSUkkjO0p8aV4h/8vOeHrcAX6AB9lIWsMhYBuXbdYcnxC9NXcdS3qm/rxcl23OL5ZE g+6SUkm/s0EcarLAZZstxD1iia4H2UgNO0tkqHTZZrtxE/gucAIV4R/lLoBm7STwAnGoylbeoqgw vwR+DPwU+DxzWSSN5BgxETjleblGvXGfmAN6HncdT84egMZwhMjB8wJmmNRwnxM9gh8TPQQlZgOg oQ4RX23fBjr8etO4PiYagp8An2UuiyR2l22+i8s2jeniMjGP5K7jkdkD0LNsEF/4LxBb/w9nLY1a 9gXwM6Jn8EHeosyDDYD2c4bdl747O1Waz4C3iMbgN3mLUi8bAO11AniRmND1hCjV4kN2l5T+Q+ay VMUGQMeI8dUXMOe76vYl8HdEY/Bz4Ku8xSmfDUCbjhBDOy/isk3N0+fECqIfA7/KXJZi2QC0o1+2 +QIe9ae2/Ar430SD8NvMZSmKDcC8bRIv+2/i4R3SV8AviF7B+8SQUdNsAObpHPGl/zwe3yc9yRfs 7jr++8xlycYGYD5OE2P6LtuUVvMbYojoLeDTrCWZmA1A3Y4TK3hexGWb0hj+nt0lpV9kLktyNgD1 OUZ85X8bl21KqXxJzBP8mJg3mOWSUhuAOhwhxvNfJNIySJrOZ+zOF/w6c1lGZQNQrn7Z5jeB53DZ plSCX7GbpbT6g2xsAMqyQSzb7FfweKC2VKaviN3GPyZ2H1e5pNQGoAxniTF9l21K9fmc3SylH2Yu y0psAPI5xW7iNZdtSvPwG6IheIsKDrKxAZjWceKF/21ctinN3QdEY/AzCl1SagOQXr9s80Vis5ak tnzBo0tKi2EDkMZh4qX/Ap6XK2nXZ+xmKf04c1lsAEbUn5fbZ9s08Zqkp/mQSEHxUzItKbUBWM8G kXjtRVy2KWmYL3l0Selku45tAIY5y27iNZdtShrL5+zuOv5l6j9mA3Bwp4jhnZdw2aak9H7N7kE2 SZaU2gA8Xb9s8wXgZOaySGrPl8Qy0r8gwYH3NgC/7yjx0v8mnpcrKY/PgDeBvyXhMZY2AOEQu1/6 HS7blJTHL4gX//tMMBnccgOwSWTZfBGXbUrK5wsidcSbTJxuurUGYIP4wu9X8LhsU1IuHwN/Q0zy jj6+fxCtNABniTH9l3DZpqR8viLW+r9JrP3Pas4NwCl2X/pbeYsiqXGfExO6b1LQwfNzawC2iBf+ N/G8XEn5/RL4a2IpZ3GHxsylATgNfJdIyyBJOfVr9/+aCXbzrqP25Y5HgdeBl3MXRJIe+inwZ7kL cRA1NwDngLeJRkCStKJ/nLsAA10ALuHLX5IGq7EH8D3g1dyFkKTa1dYD+A6+/CVpFDU1AM8B389d CEmai1oagFPAO9Q5ZCWpHl8Sq3iaUEMDcJSY8DVvj6RUPgb+Evg68O8zl2UyNXxRv46rfSSN70si 7fKbwAd5i5JH6Q3AcWA7dyEkzcqn7B628nneouRVegPwPcovo6TyfUV87f+IArJwlqLkl+sZ4Pnc hZBUtU+Jr/23SHi0Yq1KbgC+m7sAkqr0FfGV/yaRe1/7KLUBOEOc3CVJB/UZMcTztw//W89QagPw r3MXQFIV9n7t/5wJDlKfk1IbgG/lLoCkov2WGNf/G/zaH6zEBuAUsfxTkh73c2KY53382l9biQ3A c7kLIKko/dd+UefpzkGJDcA3cxdAUhE+IF76P8Ov/SRKawCO4WHuUss+J772f0Tk51FCpTUAp3MX QFIWHxBf++8TOXo0gdIaAL/+pXb8A/AT4sX/68xlaVJpDcA/z10AScl9SLz0f4pf+1mV1gCczF0A SUn4tV+gkhqAw7j+X5qbXxITuj8BvshcFj2mpAbAr39pHr4gXvg/IhoAFaqkBuBE7gJIWsuviCEe v/YrUVIDcCzBv/k/iKWlXYJ/W9LuIepvEpO7qkhJh8L/QYJ/8/8AfwR8A/jveCCENJZfA38BfA34 M3z5V6mkBuBIwn/7U+C/AF8H/oQ4JMKt5dJqviR26f5L4A+B/0ms7lGlShoCOjrB3/iKePn/HTHk 9BLw58DWBH9bqtXHxITuWzR+iPrclNQDmKIB2OszYljoG8C/wk0p0l792P4fAf+MmE/z5T8zJfUA tjL+7V88jCPANvBtXJaqNv2G3UPUfeHPXCk9gKm//vfzOfGl84fEOOdbuJxN8/cVkXL5j4F/il/7 zSilAdjMXYAn+JBY3fA14D/hhhbNz6fsLo74t8RpW2pIKQ1Ayb4A/hfwL3Dlg+r3FZFy+Y9xeXTz SmkASpqLeJq9a5//A5HDXKrBZ8B/JV76/wa/9kU5DUCKXcApfUlsd+9XSPgVpRL1y57/hHjxXyAa AgkopwGo2cc8Oo7qJjPl9lvgvxEvfTc+al+1DL3UoF9J8TOiR/MysZx0K2OZ1JafExu23scXvg6g lB5AyjQQOXxGdLe/QUy2/Qx/kErjt+xuaPRZG0eJqxKTKKUBOJS7AAn9nBga+hrwl8SQkbSuD4jn 6uvEEOSnOQszEyeAN4BbuQvSmm3gQYLopruElZwFFsA90ly3Mc+4DXwPz84Y0wbwPHCJ8e7TYtIr mIFt0vxguukuYZDDwHeAa+R/uRjlxhL4UxoampjAUeCvgJuMf78uM79h7aS2SfPD6aa7hLWdBr4P 3CH/C8fIH3eI4Qi/9sd1BniH9L3v+8B7RO/ChvsZtklzE7rpLmE0m0R9XCH/S8iYPq4S99+Xxng2 iZ72R+S5p7eBHxCNj55gmzQV3013CUmcIMZ8b5P/xWSkiztE788MtOPqJ3VL6lV/AryGy8MfsU2a yu6mu4SkNoBvMe5ElZE/rhH7RfzaH0+KSd1UcYW4/3NeBXkg50lTwd2E1zCVY8QegxSTV0b6uEsM B5xGYzpKfFnX+Lu4R8xLPEejm3M70lRsN90lTG6DeGDeJSaccj/ExtPjGjEO3fzX3sjOEi/PufwG bhHDVqfGrKTSnSBNZXYTXkNO/ZK2G+R/gI3duEesCfdrf1yHiMb0Ovnvccq4DrxKfckyV7ZFmgrs pruEYnTA27jJLPcP9z8T+zw0nhO0t1S6/4iY9bO0SZrK6ya8htIcJl5CuZa+tRb9D9WlfuPqF0Bc Jv89njJ2iF59MxvKUlRiN+UFFOw0MfF4l/wP9tziBtFNn/UXWgY1T+oOjfvARWJurzm3GL9Cuykv oAKHiCW3V8n/sNcc/aqNbpXK14HMbVL3IHEb+C6N7w3YYfyK7aa8gMqcxE1mq0b/td9Mt3wirUzq Ph5XMcfT76T4Ku2mvIBKbRIPYQ0bZ3LEfWKp7fmhFax9tTip2+8DaWqZ50H8gPEru5vyAmZgC3id tsZd94sdYhLu6DoVqt/T6qSuK8Oe4RXGr/RuyguYkX6T2UXaGov1az+dVid138X30IGkSAfRTXkB M9VvMtsh/w8qVdwk0mv4tT++Fid1bxKNnc/TCo4y/o3opryABnRMk0t9iti75K7J/CsJtTqpe4kY 3vJ5GmjsyaBu0tK34wgxnlnjD7z/2p/99voMWpzUvYPHdI5m7JVA3aSlb9MZ4IeUv8nMr7M0Wp3U NZV3AmOvBLqIjcBU+m5/SZvMbuEGm1SOEj2pFBs4Sw2T+yX2Kmlu3A1c0jelk8RQQK5NZn7tp9PR Xgrym7gBMLmO9GOHLvObVr/JbEn6H+ltHItN5RD1zvmMEYv1q1BP8zLTf1HsEL0CJwOnsUUMx4w9 ZLDE7fSp9D250ud3bAAqtUG8FHLeXJcDTqs/s3WdTWauvEinn9Rdkv/FW0rYACSwQQzH5L65e8Ml gtM6RmyY2eFg9+cqkc3Ur/3xtTipawOQ0evkv7FPCycSp3WeJ28yu0MMQ5zMV7RZ62hvUtcGILOz 1PPAuZRwWkeIFRcX8Ws/ldYndW0AMjpMvQmhLuOEo+rV4qRuf3jPco1/wwZgRO+R/6FYN1xyqFq0 Oql7k0f3/izW+LdsAEbyEvkfjLFj+fC67BWoJK1O6l4iVpk9PndnA1CAj8j/gKQKJytVgo72JnX7 397TeuQ2AJk9R/4HZapwuaKm1Oqk7nUi/9ShA9TRYo2/szjAv69nWJL/gZk6+vM/TR6lFFqc1L1P TOqeXbGuFmv8zcWKf0uPOU3+Byd3XOPgXyvSflqd1L3FeqdsLdb424uBf1MPzWHlz1hxl3igzqxV o2rNMWLzZGuTukvG2ZC5WKMMizX/dtM2mccRginiOjF2e3hw7WruztHepO5dxl9QsVijPIsRy9Gc FIe9zy36gya6YVWsmTlMfBjcIP+zOWXceHjdKYZJF2uUa5GgPM14g/wPVk1xAw+faNVJYtFAa5O6 7xI9nZQWa5Rxkbhss9baV8xY0W9h71aucdVkg0gvcoX8z9yUcYuY05gq8+5ijbIuJirj7GyR/0Gb Q+zgkZZz0+qk7lWiwZs6y+5ijTIvJi7rbLxM/gduTuGRlvVrcVL3HjG0dWqE+htq8YRyHTQWGco7 Cz8g/8M319jBw2tq0fKk7iuUscptwfDrWGQo7yxcJf9DOPfwSMtytTqpe5HyeqkLhl/TIkN5Z+EO +R/IlqI/0nLr2bdGibQ6qXubsg9OWjD82hYZylu9o+R/KFsOj7ScVsuTujWkQ18w/BoXGcpbPTeA lRH9kZbHn367NFCrk7o/pK4khwuGX+8iQ3mr9wr5H1Tj0VjikZZjaHVSd4d6NykuGH7diwzlrV6K FUDfo70siCnCIy2HaXFS9wG7iwxqtmD49S8ylLd67zD+g9g9/LdPEC+w2wn+RmtxBQ+veZpN2pzU vUP8xrbWrsEyLBheF4sM5a3ekvEfyu6xv9H/OFP8rdbCIy0fdYyYO2ltUvcasYFzbh8EC4bXySJD eauXYny0e8rfO06bP9gUcZV4CbR4eM154vyK1iZ132beZ1QsGF4/iwzlrV6KF3F3gL/bn5h0KcHf by1aOdLyMLFoobVJ3ZtEjqkaJ3VXtWB4PS0ylLd6KR7YbsUybGGvYKyY45GWp4gGrrUDiy4Bz9PW HpEFw+trkaG8VUu1CawbWB57BeNFf3hNrcMF/bxRa2lK7hBnc7S68mvB8LpbZChv1bZI8xB3I5XN XsE4UdORlq1O6n5E9NzmNqm7qgXD63CRobxV2yLNw9yNWEZ7BeNFyYfXtDipe5+4H2dHqL+5WDC8 PhcZylu1LdI82F3C8l4gJsVy/3hrjxKOtGx5Uvc1PDjoSRYMr9dFhvJW7QxpHvAucbk3iB2PF2nr izFF9L2CKdMCtzqpexkT/z3LguH1u8hQ3qp1pHnQu+kugWPYKxgrdkh3pGWrk7p3cePeKhYMr+tF hvJWrSPNQ99Ndwm/Y69gvNh7pOW6X6utTur2E+9zWo47hQXD63yHqPMW9kuMoiPNw99NdwlPZK9g vOgPr1n1SMtWJ3XfJf/zX7MF69+He8R98PS9Z+hI80PopruEp7JXMO7L7VlHWrY6qXuLOGTGc5+H 2yKS2o3dU7z18N91CO4JOtL8ILrpLuHAjhErL3bI/8KoPW7y6LGCrU7qXiHmNfzKHKb/QJtqifc1 HCJ6xDnSVHQ34TUMcZ72TodKFa197d8jGju/KIc7Siw22CHfPXSIiMgvn6KCu+kuYS25H0SjnrhB DG/VsJu6VGeIJccl9RSbHiLaJk2ldtNdwmjsFRiPx31iInvKPRJzc4hIcXGd/PfzWdHcENE2aSqy m+4SRmevwLhFzHE4qTvcSWL/wx3y389Vo5khom3SVGA33SUkZa+grbgKvIQJ2YbaYH4n/816iOg8 aSqtm/AaptD3Clqb8Gwh7gE/ZP6H6aR0jFgGO/fNfrMbIupIU1HddJcwuY7yJrKM1eMTIhmek7rD tbjZ7wEzGiI6QZoK6ia8hlyOEC8QewV1Rb+ZTcMcxud+b1Q9RLRFmkrppruEInTYKyg5bhM/0q0n 3z4dwGliqMxn/MlxiQpPcTtEmsroJryGktgrKCuuEQsdnNQdZpOov2vkv5clxiyO70xRMd2UF1Co DnsFOeIe8Db1noVcguNEj+k2+e9niXGd2Nswi0yvKW5yN+UFFK7vFdSwEabm2CFWas1mhcbEps7L U1v0mV5nd3znDuNXVjflBVTkDJHu1l7BeHGJGazGyKhf4mzq9CdHn+l1tsd3phjf66a8gAodJtYT 2ysYFrMYe83sLA5RPi2u0kim1xRdvm7KC6icvYKDx0fE2KuTusPUlJcnR/SbAk8NreAavcH4FdlN eQEzYa9g/x/lOzipu44+L89d8t/PEqPpTYHbjF+h3YTlnyN7BTEm/RozHntNrM/Lc4X897LUcFMg scFj7IrtpryAGet7BS2tw74MfIsGxl4TOUZkMp17Xp51Yzm0gudmk/Ert5vyAhpxmjiJao7d+DvE EIWTusO1mpdnaCyHVfM8fcS4ldtNWvq29BN5c+gVXCd6OLPYUJNBn5fnE/Lfy9piOaC+Z2vsieCL 2AhMocZeQb+hphu/OppxGueI1o3lyrU+Y8+TppJvEJtMnMhLq4ZewS3gAj4LQ5mX5/djnQ+f5Uq1 P3OHSDt22H/1ebZqeqX1Cq7QyIaaRPq8PDUerZgi+mXBHeutYFwe/Ba04SrT3MAdolfgeatp9b2C qe7r3rhLNEJV5kgvwAbRKzcvz27cIOY79uZ62l7j31s++za05VWmvaH32V2H69dhWlMd0H2DmNRt ckPNCMzL82jcI+Y69tsEuL3Gv73c599s1lHyLSG7SYwP2ytIqx9HHrNXcJ9YfnhuusuYnY4Y1nAJ Z0S/OuxZHxLba/wNG4AnuEj+m38JNwJNYd1ewS1iw5GN9jCHMPXH3uiHDU+vUIfba/w9G4An+Bb5 H4THXzBbKS9YK/cK+iyJJmQb5iRlTdLnjmsMP1zl5TX+rg3AE2xS5qaSy/jSmcJ+vYImsySOaBPz 8uyNfuf3us/ThTXKYAOwj23yPyD7RX+4tykD0up7BRdpOEviCMzL82hcZdwzmi+sURYbgH1sMH5q iBSxBF7CXoHKc55oPJ3U3f1oS7Ek+MIa5bIBeIpUO4NTRN+ddM25curPfi5xCDVHLEk/bHthzfLp KWrchDJ2F1N6FvPy7Ea/cGOqIdoLa5TVBuAZjlHv9vMhS8qkg9okVqCYlyci19LtC2uU2QbgAEpa Fjo01llmJu11AvPy9HETeJ28y7QvMLz8NgAH9C75H7Yx4i5P31YuPYl5eXajtPQtF7ABSO4Q81u/ fNCt5mrXUeJMYvPyRALHC5S36/sCw69pOX1x6zXHRuABu8mmutFqSrXriF5v60s4a0jhfoHh17ec vrh1m2sj0MeT0s2qDYcxL08fn1DPIU4XGH6dy+mLW7+pU0bniL0HTmjezMtT9zN/geHXvJy+uPV7 h/wP65SxQz1fQzqYPi9PjoNySovae70Lhl/7MkN5q9dqF7mG8VA93Rbm5XnAsw9ZqcmC4fWwzFDe qm2S/+EtIXYoc0WEnsy8PBFzXPm2YHh9LDOUt2qnyf8QlxSlrYnWrj4vzw75n5OcMfcd8QuG180y Q3mr9hL5H+hSoz/Scmtg3WocZzAvzwPa2f2+YHgdLTOUt2rb5H+wawiPtJyWeXkixjpkpSYLhtfX MkN5B/NlUo/zD+O3wFvAj4Df5CzQTJ0A/pz4MJnTuPaqPgTeBH4KfJm5LJqxFvYApIolHmk5hg2i d9V6Xp6Uh6zUZMF6v8lqlNADmPt4Ykrdw/ic3V7Bx/mKU52jxJj2f6Tt1VcfEF/77+PXviZ2gTRf M6eJA8dbm7i7gofXPEuHeXmmPmSlJguG1+syQ3mrdoE0D3ivz8dyI9HfKTU80vJRrT4Hj4eLCZ5t wfD6XWYob9UukOZBf5KONr/8rhIrWlocbjuFeXlKOGSlJguG1/UyQ3mrlmoS+GmOErl4WsvJPvcN PD3z8rihcB2XGV7vywzlrdo2aX4AB7FB/EAuJipDyTHHTT1bxLj2bfLXb67YwZQi61oyvP6XGcpb tW3S/BBWtUWbSb3mkMSrb8RbG9rrw6SC41oy/F4sM5S3atuk+VEM1Q8fzPmQmv2ipsRe5uWp65CV miwZfk+WGcpbtW3S/DjGcJJYSXMnURlLjZIP8jgDvE17y3truDdzsWT4/VlmKG/VzpHmhzKmQ8R4 eYt5YUo43GOTduu/pPvQiiXD79MyQ3mr1pHmB5NKq5kh+y/PKceZTwBv0F4PbG+dL6h7fqYmh4FX WG8RwXLyUleuI82PJ7XDxBdZixuLdkg39tzn5VlnKV7tUdNczByMmTVgOXHZq9eR5kc0pfO0ucFs 7+qTddeaHyWWL7a2CquPVvZolGKTmH8ce6/IcsJrmIWOND+oHPqXWGsbzB6we3jNquvPz9Fm49nH HPdjlOw4kfE05V6RJe3uvF9ZR5qbkNMG8Dxtphc+yA7U1vPytHjISk79hs+pf4/3iBVrY/SQZ6sj TeWXYoovjlLjJrG5buthXfR5eVqbQO/jKmZqnVJJKV9uEe8BG/3HnCBNhZdmkzj/uNX8NK1+7XvI yvTOEivWSv3Q+IhYQOIGPuLrMEUll+wkZqiceyzxtLYp9Xt1rpP/3h807hPDUi/R8HOyRZrKrUGN D62xf3jIyvT63fq1f0zdJfZ8dKPWTgWOkKZCa3OGsrutxv7hISvT2mDe+br68xua+ZBIUYm1MslZ HeEhK9M7RnsZe6/QQEOQouLm4DzwHu2ukS8tPGQljxZ/B7eID4wmznVIcWPn5Bht75LNHTt4yMrU +lQrn5D//k8ZSxocTtxh/IqcI/PkTBcespLHadpLtniXmMhudqnwkvErde5OEOvLW82UmSo8ZGV6 m0TqhNbSfV/HNCBAtPhjV24rUiW1aik8ZCWPFj9i7hPP2tkR6m82Xmf8im7Radxgtkp4yMr0Ws2T dRN7lvt6mfErvGV9sjU3mP1+eMhKHkeB1ygjL8+UcYlo8Jqa1F3VecaveIUON5g9wENWcumI56+l JZx3iKGt2a/fH0uKhHB6VJ8ZcYf8P5CpwkNW8mi1B3qNGM1oNq/POsZOl6z9PUdsaJrrV5mHrOTR YpJDhxRH8h7j3hg925y21nvISh6bRF6e1lah7eACglG9yrg3yDG4g+uTay3J/8NaNTxkJY8t5vPx cNDYmwpEIztDmpt2BV8QqzhBfEmXvDbbQ1byOc+8hw/3e972nmynBDZJu1LFIYLVlLg7c4mHrOTQ aobaqzR+WMvUlkxzY50kXM1p4IfkWUrqISv5nCEONW9pCfE9XDmWzTbT3uy7xIvNGfyDOQy8wjTn +3rISh6bxMdRST2/KeIG8Wy7TySjQ+RbQuZGodV0RLbMMceCPWQlnxPAG5Q99zN2mPG1QAvyPhQm BltNv8Fs6BZ/D1nJp9X04k0dtlKbc+R/QPowWdjBbbC7wewgdbuDh6zkcpSo+9by8iyJRQR+aBSu tAfTruJqtoiJ28d3d1uPeZ1j/GG70qP5w1Zq9B3yPzj7xQ6R1dAv12frd4lexFS4ufR5eaaYuC8p +jk9V/pVaIPyH1jHrlWyU8RyxpaWcHrYyow8T/4H6qBxE3cKKr9NYuNSa3l5bhK9cnuYM7Mk/8O1 arh+XVPb4slzLnMPD1uZudPkf8iGRp+vxh2sSmWVVVdziTvEfgV/V414jfwP3bqxxJwiGscR2jvY 5wG76Vv8DTVoQf4HcIzoE9K5JE2rOkN7R3veI3IRmaqlcRtEWufcD+SYcRUT0unpDhHPyEfkf16n jB2il+MGTP3OUebZ7fXcWj2uhjMZUoSHreipjjPvryET0rWrz8uzJP9zOGX0iyW21q5BNeEQ85kT 2C/6g6bd0DJ/x4i8PC0drfgAD1vRmrZpY0LMhHTzdJ728vLcI87fcLhTozjFvIeEHv/xvIOJ1Go2 5YE6JYWHrSip87Q1drqDydVqkvNIzVxxH3gPP1g0oY62dkaakK5cm8QwZWt5eTxsRdmdor0vrpvE ZOLW2rWndWwRq1pay8tzBQ9bUWFaHXM1Id20+tPQLpH/3k8ZHraiarS46uIWkSXSxFlprHsecq3h YSuq1jFijLK1dddLoovuuuv1naW9vDz9cZ7d+tUn5dfyzku77avr8/JcJ/89nDI8bEWzd5I2c69c JVaq2JXfX/9s3CX//ZoyLuM8khrT6leeCeketUEMly3Jf2+mDA9bkR7gAjOHAAAC1ElEQVRqMf/6 A+LgjVYT0h0jJs1bmx/6CA9bkZ6oX+mxQ/4f6pTRJ6Rr4TCO88Su1ZZWiHnYirSCVtd6PyCGxOaW kO4wcU2fkL9+p4wdPGxFWssWbe727BPSdetWYEaniZ5Na0N7pgyRRtZqvpcH1JWQrr9P18hfb1OG h61IEzlNrKRp7cuy3yBU4tflCeIF2OryXid1pYm1mn/oAbsJ6XJmgtwAnqe9uRoPW5EKc4728g89 YDdN9ZQbiY4SO1Zby8vzCTGZ3eKyXakKrZ77+oDdhHRba9bhfjpiYrqlRtbDVqQKtZp/qI8l4ySk O0RsVmttx3bfmHrYilS5E7SZf+gBu6tTVk1Id5KYaG8tL09/2IqTutLM9PmHWjnc/vF41oqVTeLl 19pS2z4/k1lbpUa0mn/oAdET2puQbos28/L0h604qSs16ght5h/q4xPam9T1sBVJj+jzD10k/0vK GD/6fRM17KaWlNEWbeYfmmN42IqkQTaBl2hvUrT2uEOs+vKwFUmjaDX/UE3hYSuSkmo5/1CJ0afN 9rAVSZNqNf9QCbGDh61IKkDL+YemjkuUmQ5bUuNazz+UKvp0FscPfiskKZ+W8w+NFdfwsBVJFWs9 /9CqcY84R9jDViTNSsv5h54VHrYiqQmt5x/qoz/NzMNWJDWn1fxDHrYiSXtsMf/8Q1fxsBVJ2tfc 8g952IokDXCKevMP3cDDViRpbYeJl2np+Yc8bEWSEiox/9AtPGxFkiZzlPz5hzxsRZIy6vMPXWaa l76HrUhSgVLmH7pOpLQ4NNnVSJJWtsk4+Yc8bEWSKnYGeJvVlpLeJFJVOKkrSTNwkPxDHrYiSTO3 N//QHTxsRZKas4V5eSRJkiRJkiRJkiRJkiRJkiRJkiRJkiRJkiRJkiRJkiRJkiRJkiRJkiRJkiRJ kiRJkiRJkiRJkiRJkiRJkiRJkiRJkiRJkiRJkvTQ/weax8BOX0BmMwAAAABJRU5ErkJggg== "
       id="image6816"
       x="160.89253"
       y="233.99068" /><g
       id="g6318-1-9"
       transform="translate(-103.4582,70.07659)"><text
         xml:space="preserve"
         style="font-size:4.23333px;line-height:1.25;font-family:sans-serif;-inkscape-font-specification:'sans-serif, Normal';letter-spacing:-0.00529167px;stroke-width:0.264583"
         x="158.25067"
         y="176.08521"
         id="text5365-0-0"><tspan
           sodipodi:role="line"
           id="tspan5363-6-0"
           style="font-size:4.23333px;stroke-width:0.264583"
           x="158.25067"
           y="176.08521">Successfull</tspan><tspan
           sodipodi:role="line"
           style="font-size:4.23333px;stroke-width:0.264583"
           x="158.25067"
           y="181.37686"
           id="tspan454">consultation</tspan></text><rect
         style="fill:#ffffff;fill-opacity:1;stroke:none;stroke-width:0.3;stroke-miterlimit:10"
         id="rect351"
         width="0.4167473"
         height="0.77952707"
         x="157.09859"
         y="112.96696"
         ry="0.046288326" /></g><g
       id="g6318-1-9-6"
       transform="translate(-141.6084,56.570486)"><text
         xml:space="preserve"
         style="font-size:4.23333px;line-height:1.25;font-family:sans-serif;-inkscape-font-specification:'sans-serif, Normal';letter-spacing:-0.00529167px;stroke-width:0.264583"
         x="152.72768"
         y="169.8835"
         id="text5365-0-0-9"><tspan
           sodipodi:role="line"
           style="font-size:4.23333px;stroke-width:0.264583"
           x="152.72768"
           y="169.8835"
           id="tspan7984">Reporting and</tspan><tspan
           sodipodi:role="line"
           style="font-size:4.23333px;stroke-width:0.264583"
           x="152.72768"
           y="175.17516"
           id="tspan4168">Post-Survey</tspan></text></g><path
       style="fill:#000000;fill-opacity:1;stroke:#000000;stroke-width:0.207672px;stroke-linecap:butt;stroke-linejoin:miter;stroke-opacity:1"
       d="m 161.31854,244.84508 c 0.25994,-0.0887 0.20074,-0.14831 0.0104,-0.25126 l -4.09401,-1.37404 c -0.10403,-0.0546 -0.12618,-0.0629 -0.13545,0.10605 l 6.9e-4,2.48195 c 0.003,0.13564 0.0493,0.0741 0.0819,0.0753 z"
       id="path2678"
       sodipodi:nodetypes="ccccccc" /><path
       style="fill:#000000;fill-opacity:1;stroke:#000000;stroke-width:0.167015px;stroke-linecap:butt;stroke-linejoin:miter;stroke-opacity:1"
       d="m 106.29089,240.41 c -0.19857,-0.13934 -0.12728,-0.18749 0.0204,-0.17621 l 3.62531,0.17168 c 0.10045,-0.0222 0.12149,-0.0246 0.11018,0.0943 l -0.28981,1.72585 c -0.0178,0.0941 -0.0533,0.044 -0.0829,0.04 z"
       id="path2678-3"
       sodipodi:nodetypes="ccccccc" /><path
       style="fill:#000000;fill-opacity:1;stroke:#000000;stroke-width:0.244212px;stroke-linecap:butt;stroke-linejoin:miter;stroke-opacity:1"
       d="m 131.03581,220.17316 c 0.20016,-0.268 0.0391,-0.27599 -0.22199,-0.13424 l -3.00064,1.24023 c -0.1154,0.0966 -0.13697,0.11874 0.0109,0.21178 l 1.35699,1.49534 c 0.0445,0.0285 0.0986,-0.0224 0.12026,-0.0604 z"
       id="path2678-6"
       sodipodi:nodetypes="ccccccc" /><path
       style="fill:#000000;fill-opacity:1;stroke:#000000;stroke-width:0.264583px;stroke-linecap:butt;stroke-linejoin:miter;stroke-opacity:1"
       d="m 109.41601,235.13378 c -0.17185,-0.0226 -0.26767,-0.13212 -0.014,-0.21928 l 2.67483,-0.89944 c 0.10534,-0.006 0.17841,0.0616 0.18328,0.1658 l 0.0757,1.46968 c 0.0133,0.0854 -0.0268,0.19267 -0.10767,0.19201 z"
       id="path2678-6-5"
       sodipodi:nodetypes="ccccccc" /><text
       xml:space="preserve"
       style="font-size:4.23333px;line-height:1.25;font-family:sans-serif;-inkscape-font-specification:'sans-serif, Normal';letter-spacing:-0.00529167px;fill:#005aa0;fill-opacity:1;stroke-width:0.264583"
       x="34.571171"
       y="204.34438"
       id="text5365-0-4-3"><tspan
         sodipodi:role="line"
         style="font-size:4.23333px;fill:#005aa0;fill-opacity:1;stroke-width:0.264583"
         x="34.571171"
         y="204.34438"
         id="tspan6778-7">Client</tspan></text><g
       id="g6318-1-5"
       transform="translate(-75.7613,63.175611)"><text
         xml:space="preserve"
         style="font-size:4.23333px;line-height:1.25;font-family:sans-serif;-inkscape-font-specification:'sans-serif, Normal';letter-spacing:-0.00529167px;stroke-width:0.264583"
         x="159.58255"
         y="180.17758"
         id="text5365-0-3"><tspan
           sodipodi:role="line"
           id="tspan5363-6-5"
           style="font-size:4.23333px;stroke-width:0.264583"
           x="159.58255"
           y="180.17758">Consultants</tspan></text></g></g></svg>
